:02000004FF07F4
:100000003E9140D70539109DB3BE40D1059F39FDC3
:10001000098A8F683484C1A56712F898922FFD442D
:10002000853B8CF5C693BC2F190E8CFBC62D93CF48
:10003000C2423D6498480B2765BAD4333A9DCF0736
:1000400059BB6F4B6715BDDBEAA5A2EE003FE1414E
:10005000FAC657C91C9DD4CDCAEC16AF1FBE0E4FB1
:10006000A8D5B44260A5998AF6AC604E0C812B8F5E
:10007000AA376EB16B239EE05525C969A695B56B6D
:10008000D7713C93FCE72492B5F50F7A969D469F75
:100090000207D6E1659AA65A2E2E7DA83F060C5976
:1000A0000268D3DAAA7E346E0548EE839359F3BA18
:1000B000266807E610BECA3BB8D15E160A4F314922
:1000C00065D2FCA4E81F61567DBAC1E5FD53D33B60
:1000D000BDD64B211AF3318162DA5B558715B92AF7
:1000E0003097EE4CA8B025AF8A4B86E830845A0290
:1000F0003267019F02501BC1F4F8809A1B4E167A9A
:10010000344867F1F411F29B95F82DF6176B4EB851
:100110004E2A725B076FDED7212ABB63B9049A545B
:10012000BF1868050A05FE95A9FA605671897E32E6
:100130007350A006CDE3E8C39AA445744C3F9327BF
:100140009F09FC8EB95173283825FD7DF4C665677B
:1001500065920AFB3D8D34CA2787E52103910E681D
:10016000B02614E5EC451EBF940FBA6D3DC62BE3D7
:10017000C052F88CD57429E4184CE6B0B179F0443B
:10018000BAD647A4C382917FB729274BD11400D593
:1001900087A064B81CF13CE3F3551BEB737E4A1552
:1001A00033BBA50844BC12A202ED5EC7C348508D04
:1001B00044ECBF5A0CEB1BDDEB06E246F1CC4529C3
:1001C000B303D0E779A132C87E4D12000A9D725F59
:1001D000F38F6D0EA1D4C162987AB23859ACB86869
:1001E000A48C7D7BB60698493927D22784E25B57D9
:1001F000B9534520E75C08BB847841AE414CB63822
:1002000031711577EBEE0C3A88AFC8008915279B42
:1002100036A759DA68B66580BD38CCA2B67BE55101
:10022000A4E39D6891AD9D8F3791FBF828245F175B
:1002300088B9CF9F32B50A059FC05413A2DF6578F5
:10024000B12132AA9A2C6FBAA723BA3B5321A06CD2
:100250003A2C19924F76EA9DE017532E5DDD6E1D04
:10026000BFA34E94D05C1A6BD2C09DB33A35707464
:10027000492E54288252B2717E923C2869EA1B466C
:1002800036DA0FABAC8A7A21C849353D54C628A569
:100290006875AB138B5BD03737BC2C3A62EF3C23CD
:1002A000D93492F3ED5DA7E2F958B5E180763D9639
:1002B000FB233C6EAC41272CC3010E32A124903AA3
:1002C0008F3EDD046659B7592C7088E27703B36C12
:1002D00023C3D95E669C33B12FE5BC6160E7150985
:1002E0007EA334A835E87DDFEA579868DA9CE18B75
:1002F00026B367713685112CC2D5EFDBD9B39E5872
:100300005E51AA4954635BED3A82C60B9FC465A84F
:10031000C4D1425BE91F0C85B915D3036F6DD7308B
:100320001D9C2F630EDDCC2E1531897696B6D051EB
:10033000587A63A86BB7DF5239EF0EA0497DD36DB1
:10034000C7E406211744446C697F8D9280D653FB25
:10035000263F4D69A49E73B4B04B862E1197C610EC
:10036000DE5FBE7D27C49364A27EAD19AD4F5D26CE
:1003700090453046C8DF000E09FE66EDAB1CE62551
:1003800005C85883A02AA60C4742207AE34A3D6A52
:10039000DCED113BA6D36474EF060855AF9BBF0399
:1003A000046658CC28E1133F7E7459B4EC73586F3F
:1003B000F56812CCED3DB6A02CE2864563786D560B
:1003C0003408C19C9FA4371651C49BA8D5568EBC37
:1003D000DBD27F7F0FECB51CD935CC5ECA5B97337F
:1003E000D02F5AC6854205A1C36716F32A11646C43
:1003F00058EE1A7340E20A682AB29347F3A5FB1439
:10040000D4F785691646D73C5700C8C9845E3E5963
:100410001E13617BB6F2C32F6C52FC83EA9C8214DC
:10042000C295DD97847B43FFA7B54EAA304E746C0E
:100430008BE8853C615D0C9E7381755F1EC7D92F6B
:10044000B8EC714E2F0BE721E377A440B9DD56E6F7
:10045000804F1DCECE5665BF7E7B5D53C43BFC05F1
:10046000DDDEAF52AEB3B824CF303BED8C639534B4
:100470009581BEA983BCA433041F655C47673737E9
:10048000D9ADD140FD99BA2F27D0F4966F1607B396
:10049000AE3BF01552F0634399F9183B6CA5BE1FB3
:1004A00090652414CB9540633555C116401412EF66
:1004B00060BC10890C14389E8C7C90305790F56B82
:1004C0008A5B41E1F178A70F7EA7C3BAF79F400688
:1004D000509AA29AB8D7526F565A637AF61C5202B3
:1004E00094529D0A0BEE3F51665ADF0F5CE7988FDE
:1004F000CE07E1BF888661D4ED2C38717E0AA03F1B
:10050000E45E2F77206714B1CE9A0796B194F8E88D
:100510004A82AC004D22F84AC46CCDF7D95317007B
:1005200034DB3D962D23693C583897B4DA87DE1DBD
:1005300085F291A0F9D1D7AAB6ED48A02FFEB51249
:100540004DE3FC96C4FBF071ED5BF3AD6B82B973C8
:1005500061C528FF617204D26F20B16FF9769B7478
:10056000921E6FAD267C2BDF13894B5023D3664B35
:10057000C38B1C75C09D408CB8C79607C2937E6F15
:1005800005AEA6AE04F65A1F999CE4BEF15123C1F4
:10059000666BFFEEB508A8615121E0010FC1CE0FD7
:1005A000441EFE49A6584D647E77AD31A2AEFC21B3
:1005B000D2D07F885A1C4402F311C58371AA014925
:1005C000454E24C49DD2F23D0ADED893740E022B10
:1005D0004D210C827E06C86C0AB9EA6F1679374144
:1005E000F0F81A8C54B7B108B49962247C7A0FCE13
:1005F00039D9061EF9B060F713126D727B88BB41C2
:10060000BE464374447DE840252BB515D4DA481D19
:100610003E603BA1188A3A7CF7BDCD2FC128B74E6A
:10062000AE91667C594C237EC8B4850A3D9D886492
:10063000E7FA4A350CC9E2DA1D9E6A0C071E870AE2
:100640008989BC4B99B501336042DD5B3AAE6B736F
:100650003C9ED519E2AD610D64D485260F30E73E8E
:10066000B7D67D9EE455D2F5AC1E0B615C111680A9
:10067000CA87E1925D97993CC22591976257811391
:1006800018751E844779FA43D7469C6359FAC6E524
:10069000742B05E31D5E06A13090B8CFA2C6477D3E
:1006A000E0D6F08E14D0DA3F3C6F54919A743E9DA0
:1006B0005781BB261062EC7180ECC9348DF58C1427
:1006C00027F03479F692A446A90A84F6BE849946A6
:1006D000541861892ABCA15CD4BB5DBD1EFAF23FEF
:1006E0006D75E49A7D2F57E27F48F388BB45C3566A
:1006F0008DA860696D0BD19FB9A1AE4EADEB8F2770
:100700006639938C1F68AAB1980C29209C94218C7F
:10071000523C9D21915211397B679CFE02DD0441C0
:100720002A4224115EBFB272B53AA398330CFAA1E3
:1007300066B652FA0161CB94D553AFAF003B862C1D
:10074000B86A09DB064E2181354FE40CC9B6A821F1
:10075000F52A9E402AC1246581A4FC8EA4B56501BA
:10076000766A84A074A490F1C07C2FCD84F9EF1236
:100770008F2BAA5806295E69B8C8FEBFD9671B59D6
:10078000FA9BB4801C0D2F318AECF3AB5E51795982
:10079000881CF09EC0337072CB7B8FCAC72EE03DA1
:1007A0005DB5189F71B3B9991E648CA1FAE565E433
:1007B000ED059FC2361108618B123070864F9B4841
:1007C000EF92EB3A2D1032D261A81661B45362E178
:1007D00024AA0B19E7AB7E3DBFBE6C49BAFBF549B5
:1007E000D4CF5B8A109A9430EB7364BC70DD40DC2C
:1007F0001C0D7C30C194C292746EFACB6DA8045665
:100800002E579C1E8C625D15414788C5AC864D8A6B
:10081000EB635751F652A3915B516788C2A6A106BC
:10082000B664177CD4D18872518B41E04011547268
:10083000D1F6AC18601A039FC64227FE899E982005
:100840007FCC2D3AFD77974992D84FA52C7C8532E5
:10085000A0E307D264D879A2297EA60C1DED03047B
:100860002EECEA858B277416DF2BCB7A07DC21561A
:100870005AF4CB61164C0A64D39505F750990B7363
:1008800052C54E87352D4BC98D6F2498CFC8E6C50C
:10089000CE35C016FA46CBF7CC3D30084345D75B82
:1008A000C24CB22895D19A7F81C1356365546B7F64
:1008B0003672C04F6EB6B86683AD807300783A1357
:1008C0002A79E7152193C485C9DDCDBDA2894CC61F
:1008D00062D7A3ADA83D1E9D2CF8673012DBB75B35
:1008E000BE62CAC667F46109EE521921D621EC0432
:1008F0007047D59B77602318D2E0F0586DCA0D740D
:100900004ECECF5207EE48DFB708EC06F3FAFFC32E
:10091000C45954B92A0B71058DA33E96FA251D16AC
:100920003C437804578C1A239D4381C20E27B5B7E8
:100930009F07D9E3EA99AADBD9032B6C25F5032C91
:100940007DA4537B75180F7979580CCF30017B301B
:10095000F9F77E25773D9031AFBB96BDBD689469B0
:10096000CFFEDAF4462F1FBDF7D67FA41401EF7C2B
:100970007FB3474ADAFD1FD385579073A4195252AB
:100980004819A96AE63DDDD8CCD2C02FC2645048D0
:100990002FEAFD346624489B3A2E4A6C4E1C3E29B1
:1009A000E11251924B136E37A05DA1DCB578377020
:1009B00011311C46AF8945B02328037F445C605B3E
:1009C000897CC420598065B9CC8F3B920C10F0E72C
:1009D00077EFE20265250100EEB3AEA8CE6DA72445
:1009E0004CF0E7F0C6FEE93B6249E3759E576A8624
:1009F0001AE61D1E16EF4255D5BD5ACCF4FE122F35
:100A000040C7C0DFB222450A07A4C9407F6ED0109C
:100A100068F6CF784114CFC69037A418257B605E66
:100A20001818DF6C8F1DB358A25862C34FA7CF357B
:100A30006E1DE6664FFFB3E1F7D5CD6CABAC6750EA
:100A400014CF96A51C432CA000E4D3AE402DC4E3E4
:100A5000DB260F2E802645D26870459E13331F205B
:100A6000519D03086B7F52FD06007C016449B1185B
:100A7000A8A4252EB00E22D57503466288BA7C390B
:100A8000B25959F09330C1307679A9E98DA13AE293
:100A9000265E1D7291D42F223A6C6E7620D33923B4
:100AA000E77913C8FBC31578F12AE1DD209461A62C
:100AB000D5FDA885F8C0A9FF52C2E1C122401B772D
:100AC000A72F3A5186D97DD808CFD4F9719BACF5C0
:100AD000B383A21E1BC36BD0761A971992181A33D0
:100AE000C6804FFB456F16F5CF75C761DEC7369CD4
:100AF0001CD941901BE8D4E321FEBD836B7C1631E9
:100B0000AF72759D3A2F51269E4A076888E2CB5BEB
:100B1000C4F78011C1C1ED847BA649F69F61C91A53
:100B200068104B5242382BF287E99CEE3B346850F8
:100B3000C850624A84719DFC11B1081F343624618B
:100B40008D894E87DB419DD920DC076CF1A5FE091C
:100B5000BC9B0FD0672C3D7940FF5E9E30E2EB4698
:100B600038262D1AE349638B35FDD39B00B7DF9DF3
:100B7000A46BA0A3B8F18B7F4504D97831AA2215C4
:100B800038496169532F382C106D2DB79A40FEDA21
:100B900027F246B69133C8E86C302405F570FE455F
:100BA0008C0B0C96A67548DA202F0EEF76D0685B7A
:100BB000D48F0B3DCF51FB07D492E3A023168D4277
:100BC000911495C82049F262A20C633FC807F00552
:100BD000B8D4C9F5D245BB6F45227AB56D9F611671
:100BE000FD08A301444A4F08ACCAA576C31922A840
:100BF0007DBCD14346DEB8DEC638BD602D59811DAF
:100C00005FAC0DA65687366157DCABEB6A2FE01759
:100C10007D0FCE4C2D3F197FF0DCEC89774A2320E5
:100C2000E8C5857B9FB66587B2BA68D18B67F06FE0
:100C30009B0F331D7CE7703A7C8EAFB0516D5F3AED
:100C400052B27871B60DD27660D11ED5F9341C0738
:100C50007011E4B3204A2AF666E3FF3C3582D67C65
:100C6000B6FA87D85BA4E10B6E3B40BA326A842A9D
:100C700000606EE9121092D94309DC3B86C838281F
:100C8000F3F4AC6860CD65A6D3E3D73C182DD94208
:100C9000D92560339D385957FFD82C2B3B25F03E82
:100CA0003050464ACFB06BD1AB77C515416B49FA8E
:100CB0009D41ABF48AAECF821228A806A6B8DC21EB
:100CC000C89F9D8C4604605CCBA32AD46E09402546
:100CD0009C2FEE124C4D5B12AB1DA39481D0C30B25
:100CE000BA3177BEFA008D9A89189E627E600382BF
:100CF0007FD9F3433702CCB28B676F6CBF0D845D35
:100D00008BE19F300D386E70C765E1B9A62DB06ECE
:100D1000AB20AE7D99BABB57DD96C12A2376423A05
:100D2000FA84708A2C43424B45E5B9DFE3198A897E
:100D30005DE4589C21009FBED1EB6DA1CE77F11FE1
:100D4000CB7E44DB72C1F83BBD2D28C61FC4CF5FEC
:100D5000FE15AA75C0FFAC80F9A9E124E8C97007A7
:100D6000FDB5B5459AD961CF24793A1BE984098646
:100D7000893E3E30190930E71E0B5041FD64F239BF
:100D80009CE2E7DB1734ADA79C139C2B6A3794BD1C
:100D9000A97B59938E1BE9A04098886834D7121715
:100DA000E17B09FEAB4A9BD12919E0DFE1FC6DA490
:100DB000FFF1A62C9408C9C34EF1352C2721C66536
:100DC000DD9331CEF8892BE7BBC025A15633104DFA
:100DD00083FE1C2E3DA9190472E29CB10A80F922FF
:100DE000CBF89E3E8A365A60154750A522C0E9E3EB
:100DF0008F24245FB0483D55E5267664CD16F41364
:100E0000ACFD6E9ADD9F02424149A534BECE12B9B7
:100E10007BF3BD87B9640F64B4CA9885D3A47141CC
:100E20008C4CC999AA5827FA07B800B06F6F0023F5
:100E30009253DAADDD91D2FBABD14B57FA1482500D
:100E40004BFED63E156902C2C4771D5139675AA6BA
:100E500094AF142C4626DECB4BA7AB6FEC60F92287
:100E6000D603D053BB151A4665C9F3BC882810B207
:100E70005A3A686C7576C52747B46CC8A458773A57
:100E80007650AE93F6118154A654FD1DDF21AE1DA0
:100E9000655E11F3908C241294F4E78D5FD19F5D11
:100EA0007F72636DD308140333B5C7D7EF9A376ADF
:100EB0004BE2AECCC58FE1A9D3BE8F4F91352F3316
:100EC0001E52D7EE2A4D243F15962E4328903A8E77
:100ED000D4169C2E77BA64E1D898EB47FA87C13BC9
:100EE0000CC286EA1501476D25D1466CCBB78A99AD
:100EF0008801663AB53278D703BA6F90CE810D4536
:100F0000755220A6A1B67B6E838E3C41D7214FAA95
:100F1000B25C8FE855D1566FE15B34A64B5DE22D94
:100F20003F74AE1C96D874D0ED631CEEF5186DF8C6
:100F300029EDF4E75BC5BD9708B13A6679D2BA4CA2
:100F4000CD1FD7A02490D180F88A28FB0AC225C5DE
:100F500019643A5F4B97A3B1337200E2EFBC7F7D17
:100F600001286B266A1EEFFA169F73D5C4686C863B
:100F70002C76031BBC2F8AF68D5AB7875E437559B2
:100F80009490C2F3C55D7CCDAB05912A9AA281C72E
:100F900058301C42361DC680D7D4D8DC96D19C4F21
:100FA00068377B6AD8979219637AD11A2458D0D0BF
:100FB000170C1C5CAD9C02BA07037A3884D0CD7C38
:100FC0001704266D2C42A6DCBD408294503D15AE20
:100FD00077C668FBB4C1C0A953CFD061EDD08B42B6
:100FE00093CC606718840C9B992AB31A7A00AECD13
:100FF00018DA0B6286EC8DA844CA908184CA9335B6
:10100000A79A845E9A181392CDFAD86535C3D8D4BE
:10101000D1BBFD535B54528CE6632DDA088339272C
:1010200013D45E43288DC342C9CC783260F350BDDF
:10103000EF03DA791AAB07BB55338CBEAE97952612
:101040005324700A4C0EA1B9DE1B7DD56658A20F41
:10105000F7DA27CDB5D9B9FFFD332C4945292C57EF
:10106000BE30CDD645C77FC7FBAEBAE3D3E8DFE4D9
:101070000CDA5DAA30882CA280CA5BC09854987F95
:1010800017E10B9F88CE493888A2547B1BAD0580A1
:101090001C92FC239FC3A33D04F3310A47ECC276A4
:1010A0006363BF0F521556D3A6FB4DCF455A0408B4
:1010B000C2A03F87BC4FC2EEE7129BD63C65F23020
:1010C000850CC1AA38C9088ACB6B27DB609B174601
:1010D00070AC6F0E1EC020A9DA736459F173122F21
:1010E000111EE08A7CFC39479FAB6A4A907452FD1E
:1010F0002E8F7287828AD941F2695BD82A579E5D0A
:10110000C00BA755D78B4830E742D4F1A4B5D6061B
:10111000626159BC9EA6D1EA84F7C5ED9719AC3837
:101120003BB151A717B566068C859B7E86067D74FC
:1011300049DE4D4511C0ACAC9CE6E9BF9CCDDF2239
:10114000D90C0DC3E0D2DB8D3343BBAC5F668EADF3
:101150001F962A328C256B8FC7C14854C016296B45
:10116000A1E03B10B459EC5669F959D2ECBAE32E20
:1011700032CDF51394B27C7972E4CD247887E90FEF
:101180003B91BA0AD134DB7E0EAC6D2E82CDA34EDC
:1011900015F87865FF3D0866170AF07F303F304C40
:1011A000858CB217D63B0AD3EA3B7739B777D3C5DC
:1011B000BF5C6A1E8CE7C6C6C4B72A8BF7B8610D40
:1011C0000045D90D5803FC2993ECBB6FA47AD2ECEF
:1011D000F8A7E2C25F150A13D5A106B71A156B412D
:1011E000B036C1E9EFD7A856204BE458CDE507BD8E
:1011F000ABE0571BDA2FE6AFD2E87742F72A1A198D
:1012000031143CC54BF716CEDEED7220CE25972B60
:10121000E73EB2B56FC3B9B808C95C0B450E2E7E68
:10122000FB0E464F432BE69FD60736A6D403D3DEEC
:1012300024DAA0B70E2152F0935B5400BE7D7E23CA
:1012400030B40167ED75350110FD0B9FE694102356
:10125000227FE483150F3275E35511B199A6AF7162
:101260001DB653399B6FCE65E641A1AFEA3958C62A
:10127000FE59F7A9FD5F430F8EC2B1C2E9421102C8
:10128000D6503B471C3C42EA10EF383B1F7AE851EE
:1012900095BEC9B25FBF849B1C9AF878BC1F7300CF
:1012A0008018F84818C730E419C1CE5E220C96BFEA
:1012B000E315BA6B83E0DAB60858E147336F4D4C5B
:1012C000C91F7DC1CFECF718143C4051A6F5756CD1
:1012D000DF0CEEF72B71DEDB227AE4A7AADD3F19E3
:1012E00070198F98FCDD0C2F1BF5B9B02762916B3C
:1012F000BE769177C4B6C76EA89F8FA80095BF38F9
:101300006F87E8373CC9D21F2C46D1185A1EF6A267
:101310007612243982F5805069490DBF9EB96F6AF3
:10132000EB550856BBC1466A9DF093F838BB1624AE
:10133000C1AC718F37111DD7EA9618A31469F775E0
:10134000C623E4B6B522B1EE8EFF86F210709D93EF
:101350008C5DCF1D832AA99010EBC5429FDA6F13D5
:10136000D1BD05A3B1DF4CF9082CF89F9D4B360F7A
:101370008A58BBC3A5D8872ABADCE80B518321025F
:10138000142DAD5E3866F74A30587CCA80D88EA0DE
:101390003D1E2110E6A6130D036C807BE11C076A3D
:1013A0007F7A304301715A9D5FA47DC49EDE63B095
:1013B000D37A92BE52FEBB226C4240FD41C48713D9
:1013C000F88A9787D1C3D3B513440E7F3D5A2B7249
:1013D000A07C47BB48487B0D92DC1EAF6AB27131DE
:1013E000A84C569790312FA919E175224CB87BFF74
:1013F000505187A437FE554F5A83F03C87D41F22A3
:10140000D1478AB2D8B70DA6F1A47017D614BFA6DB
:1014100058BDDD5393F8A1D4E9434234634A516C7B
:101420004163153A4F2022232D030ABAE9E073FBEA
:101430000E030F414CDDE0FCAA4A92FB96A5DA4868
:10144000C79CA55C668ECA6EA0AC382E4B2547A8FB
:10145000CE171ED208C7AF31F74AD8CAFCD66D677F
:1014600093974CC85D1DF614068241EFE3F941994C
:10147000AC7762348FB8F5CDA9798A0EFA37C8589F
:101480005890FC968568F90C1BA0567BF3BBDC1DBD
:101490006AD635497DE7C2DC0A7FA5C6F2734F1CC8
:1014A000BBA05F30BD4F7A0EAD63C654E04C9D8249
:1014B0004838E32F83C321F4424CF61B0DC85A79F8
:1014C00084347CFC6E706EB361CFC1C3B4C9DF736A
:1014D000E5C71C78C9791DEB5C67AF7DDB9A457069
:1014E000B32BB49149DB911BCADC024B23962657E0
:1014F000DC788C1FE59EDF9FD31FE28C8462E15F66
:101500001A9694E14F21594E4FCD710DC77DBE49BA
:101510002DF2503BD2CF0093327291FC46D48947D2
:1015200008B27C5D2D857928E7F27D6870DDDEB834
:1015300091786821ABFF0BDC35AA7D6743C0442B53
:101540008EB74E07AB871C1A67F4DA998ED1C6FAAC
:1015500067904F48CDBBAC3EE4A4B92BEF2EC560DD
:10156000F18BFD3BBC895D0B1A55F3C937926BB00B
:10157000F52830D5B0164C0EABCACF2C319CBC1020
:10158000116DAE7CC2C52B70AB8CA4549B69C74453
:10159000B22E49BA5640BCEF6D67B6D94872D770C3
:1015A0005BA0C23E4BE88AAAE08117EDF49E6998E1
:1015B000D1858E70E413457913F476A9D35B7563F6
:1015C0005308D12A3EA05FB56935E69E90756F3508
:1015D00090B869BEFDF1F99F846FC18BC4C18C0DB9
:1015E000B7ACF1971810C73DD8BB65C15E7DDA5D19
:1015F0000F02A10F9C5B8E50562AC53717756327C3
:10160000A919B46ED3029402A560B4777E4EB4F0EB
:1016100056493CD43062A8CFE766D17A8ADDC270E1
:101620000EEC6F9F509461658D51C646A97E2EEEDB
:101630005C9BE067F3C133979584946363AC0F2E92
:10164000137EEDB87D96D4917A8176D70A2F2574D2
:101650006425850DE08209E4E53CA5163861B832C1
:1016600064CD48E4BEF7E779D0867808673AC86A5F
:101670002EDBE4A0D9D49FF8414F5A735C21794105
:101680002AEDDCD7E794708C709CD347C38AFB9714
:1016900002D906A933E03BE1769DD90CA34403703F
:1016A00034CD6B28B933AEE4DCD69D55B67EEFB7AA
:1016B0001F8ED3B31F148B2786C241226685FA3151
:1016C000F422362E426C82AF2D503398872920C1E8
:1016D0002391382BE1B7C19B892495A91223BB2400
:1016E000C367DE3217EDA8B148491B461894B43CD5
:1016F000D2BCCF764343BD8E0880181E873EEE0FC6
:101700006B5CF8F52A0CF8419467FA04C38472689C
:10171000AD1BBAA399DF4589165DEBFFF92A1D0DB4
:10172000DF1E6232A18ADAA979652259A122B83076
:1017300093C19AA77B190440761D531897D7AC160E
:101740003D1D9B2DAF72DF725A2432A4362A4663A8
:101750003796B31679A0CE3E092330B9F60E3E1265
:10176000ADB68778C5C659C9BAFE905FAD9EE19403
:1017700004F542A3624EE216001716184BD34E161C
:101780009AE62F194CD97E481315913AEA2CAE618E
:1017900027DEA4B9D3F67B87EBF37310C60FDA7894
:1017A0006AC62BE5285DF15B8E1AF07018E3472CB2
:1017B000DD8BC206BCAF19243A176B25EBDE252D55
:1017C000943A0C68F1809FA2E6E7E91A157EF7715A
:1017D0007379014858F10011DD8DB316B3A44A05A1
:1017E000B87C26198D46C8DFAF4DE5669C78280B7E
:1017F00017EC6E662A1DEB2A60A77DABA610461378
:10180000FEB0F68DC78E13511BF575E589DA975337
:10181000B9F17A711D7A200950D6202BBAFD022128
:1018200015F5D177E7652ACDF160AA8F87918954A4
:10183000E506BCDABC3BB7B1FBC97CA9CB784865EF
:10184000A1E65C0505E49E9629AD511268A7BC3659
:1018500015A47DAA17F51A3ABAB2EC29DB25D70AE6
:1018600057244E83B16742DCC51BCE70B54475B6B4
:10187000D75ED1F70B7AF01A5036A071FBCFEF4A42
:10188000856F059B0CBCC7FED7FFF5E768527D53FB
:10189000FAAE124362C6AF77D99F3902535F674FE2
:1018A0001E17150436362DC33B48988911EF2BCDF2
:1018B000105194D0AD6E0A876165A8A272BBCC0BA3
:1018C000C8A9B1EA2F965E18CD7D146535E6E78686
:1018D000F26D5BBB31E092B03EB7D659ABF024401D
:1018E0009612FE504C5E6D187E9FE8FE827B39E0BA
:1018F000B0317050C5F6C73BC2378F1069FD7866AE
:10190000C263686331FA8615F2332D57488CF607A7
:10191000FCAE9E789FCC734F0147AD8E10E2422DF6
:101920009BD2DF941513F5976A4C3F315D98556152
:1019300010504508073FA1EB22D3D2B808266B67A9
:101940009375530F0D7B71214C061E130B694E913D
:101950009FE02A75AE87B61B6E3C429BA7F30B42F5
:10196000472B5B1C65BA3881801B1B31ECB6718636
:10197000B03531BCB10CFF7BE0F10C9CFA2F5D74EB
:10198000BDC8C92B1E5A52BF819D472608265BEA57
:10199000DB5501DF0EC711D5D0F50C96EB3CE21AF2
:1019A0006A4ED32157DF3660D0B37B992788DBB1ED
:1019B000FA6A75C8C309C2D339C81D4CE55BE10694
:1019C0004A993219875D725BB0DAB1CEB51C3532F7
:1019D00005CAB7DA4915C47DF7C18E2761D8DE582C
:1019E0005CC566F2933717D8494E45CCC576C9C851
:1019F000A8C326BCF882E35CF9F68554E89DF32F72
:101A0000A8C9C2B6A85BFB2D8C592CF58EEFEE4809
:101A100073152DF107918033D85B1D536B69BA089C
:101A20007AC5EFC3EE3EED771148FFD41755E004B9
:101A3000CB71A6F13F7A3DEA54FE7C94B433061292
:101A4000420061917898940BE8FAEBEC3CB1E74ED8
:101A5000C0A4F0949573BE708591D5B4990AD3351E
:101A60000A1012494731BD8206BE6F7E6D7B23DEB0
:101A7000C679EA1119761EE1DE3B39CBE33B430719
:101A8000F497E95CC04479FFA3515CB0E43D5D5735
:101A90007C84765AFD8133589FDAF67ADE3E872DB4
:101AA0000934374364317A15D981AAF4EEB7B8FA0C
:101AB0000648A6F5E6FE93B0B6A77F705436772E9B
:101AC00081F95D4EE10262AAF5E1155017590DA2A8
:101AD0006C1DE2BAD375A218530260018A614305F6
:101AE000C1234C97F4BDEA0D9346CE9D250A6FAAFB
:101AF0002CBA9AA2B82C20040D96072D3643144B0D
:101B00007A1F6EB6C7B7C4CC7E2F0CF5257E154460
:101B10001CAF3E71FC6DF03EF763DA5267442F58FC
:101B2000CB9C521CE9547C96FB35C6649226F63059
:101B300065191278F4AF47275C6FF6EA188403172B
:101B4000E44C3220D37B31C6C48B48A4E84210A8B1
:101B500064135A4E8BF11EB2C98DA2CD4B1C2A0CB8
:101B600047041F6FD0C74DD259C087DB3E9E26B2B7
:101B70008FD2B2FB72025BD17748F6C6D18B557C0F
:101B80004569BD694881C4ED228D1CBE7D906D0DF7
:101B9000ABC55CD512D23BC683DC14A3309B6A5A1A
:101BA0003D4696D32415ECD0F0245AC38A62BB126A
:101BB000A45FBC1C793A0CA5C3AFFB0ACAA50404F8
:101BC000D643A70A07401F8CE85E265BCBD0BACC71
:101BD000DED28F666B044B573396DDCAFD5B394608
:101BE000D16F412A1B9EBC628B5950E328F7C6B5C2
:101BF00067695D3DD83F340498EEF8E716755239B1
:101C00009C9A5D1A2DDB7F112A5C00D1BC45779C24
:101C1000EA6FD554F1BED4EF16D022E8299A577650
:101C2000172AC0497E8EB6457FA3A9BCA251CD23F9
:101C30001B4C22EC115FD63EB1BD059EDC84A34354
:101C4000F234B45213B53C33E180DE93492832D8E4
:101C5000CE350D75872851B5C177272ABB14C5022B
:101C600045B6F18BDAD54B68534BB5F67ED38BFB7B
:101C700053D2B0A9D71639315980546109926011F5
:101C8000AACFDA2969164DB48F5913844C9F52DAC2
:101C900059553D45CA63EFE90B8E69C55B121E3588
:101CA000CD4D9B361656387A63355C65A72CC075CA
:101CB0002180F1D4F91BC27D42E0E691747D632F4F
:101CC000BE7BF61A469BB4D46189ABC87A0303D6AF
:101CD000FB99A6F99FE1DE719A2ACEE7062D187FBF
:101CE000EC6801AB648E7C7A43C5ED15554A5ACB3E
:101CF000DA0ECD47D3195509B0933E348CACD46776
:101D00002275218E724B4509D8B884D4F4E858AABC
:101D10003C90467F4D2558D317521C2443C0AC44F9
:101D200077577A4FBB6B7D1CE1138391D4FE358BC3
:101D300084466BC9C6A1DC4ABD71AD12831C6D55CA
:101D400082398D0CE340EF1734FAA3153E07F731C3
:101D50006E647307CBF3214FFF4E821D6D6C6C7464
:101D600021E81BB15667F081DDF3A31023F8AF0F14
:101D70005D46996A55D0B2F8057F8CCC38BE7A0999
:101D8000A42DA57E87C9490C431DDC9B5569434C96
:101D9000D2EBCCF709382C02BD84EE4BA3147E574E
:101DA0000A3BA761AC68E2F0F5A5913710FAFAF2A8
:101DB000E9006D6B823EE1C1428FD76FE97EFA6028
:101DC0002BD74DBDBECEFE9411220F06DA4F6AF41A
:101DD000FFD1C8C077594A12959200FBB8045370DE
:101DE000C66E294D351D3DB6D831AD5F3E05C3F3F6
:101DF000EC42BDB48C950B67FD5363A10C8E392169
:101E0000F3332B388A05F589B4C048AD0BBAE25AD2
:101E10006EB33DA503B5938FE632A2959DEDA35A0F
:101E20000156B7B4F9AA982772AD8D5C1372AC5EF7
:101E300023A0B76161AACED24E7D8FE984B2BF1BC9
:101E40006165D9C7E97767653680C77254122BCBB5
:101E5000EE6E50D999320565CC57895E4EE1074A3E
:101E600099F90D98CB12E44E71C76E3C6FD715A34C
:101E7000FD775C92DEEDA5BB0234311D39AC0B3F22
:101E80009BA477C4CD580B2417F04764DEDA38FDE5
:101E9000AD6AC8A7328D921981A0AF84ED7AAF5098
:101EA000E55BF61501DE4F6EB20961212126982906
:101EB000D9D6AD0B8105027806D0EBBA16A321194D
:101EC000FC70B8DF7E2F4289BDB3764FEB6B292CB7
:101ED000F74DC236D4F13807B0AE73E241DF586433
:101EE0008BC1F3D99AAD5AD79CC1B160EF0E6A5637
:101EF000D90E5C25AC0B9A3EF5C762A0EC9D047B25
:101F0000834444357AE3CBDC93BEED0F3379887597
:101F100087DDC512C3046078640E95C2CBDC936084
:101F20006D70E085859AF31F3339E7B3D8A5D036B5
:101F30003B458F71E1F2B9437CA9274808EAD157A4
:101F40004B038460BEEEDE6B54B80F78B6C2993195
:101F500095062DB6AB763397907D648BC980316E34
:101F600071B028A1E7B67AEEAA8BA8936D59C1A4E7
:101F7000306121B282DEB4F718BD97DD9D993E36FF
:101F8000C41FEE35C143A896CFC8E40855B36E9779
:101F900030D38CB501682FB42B053A69789BEE4895
:101FA000C6AE4BE2DC48182F60AFBCBA55729B76C8
:101FB00031E9EF3C6E3CCB9055B3F9C69B971F239C
:101FC000C6F32ACC4BDE315C1F8D20FE30B04BB007
:101FD00066B44FC109708DB7132479089BFA9B072B
:101FE000F40D30DA513A90E3B05AA93D23643984B4
:101FF0008064350B2DF13CED94718184F6778C0370
:102000004542D5A280EDC9F35239F677788BA00A04
:10201000755408D163AC6DD76B63709415FBF41ED7
:10202000EC7B165BE65E4E85C2CDD096420A5959CE
:102030009921109834DFB27256FF0B4A2AE95E5795
:10204000CF2F188A9080C0D4BD9D4899C270E130CE
:10205000DE33F75257BDBA0500FDD32C11E7D44348
:1020600001D8A40A45BC465DD8B933A52712AFC331
:10207000C206892B263B9E381B582F387E1E0A200D
:10208000C53AF9EA67B98D51C05266059B98BC7193
:10209000F5977156D9852BFE384E1E6552CA0E052E
:1020A0009C0C3F45DE1A43C39B3B70FF5E04F5E981
:1020B0003D7B84EDC97AD9FCC6F4581CC2E60E4BB0
:1020C000EA68E6607639AC9797B43A15FEBB199B7F
:1020D0009FA7EC34B579B14C57AE31A19FC0516187
:1020E000965DF0FD0D5CF53A7AEEB42AE02E26DD21
:1020F0000917171287BBB2110B030F80FA24EF1FC9
:102100009631A71AFB53D6371864D73F3095940FF2
:10211000B2173AFB090B20AD3E61C82F29494D5437
:10212000866B9730F5AFD2220446D2C206B8908DA6
:10213000E5BAE54D6C89A1DC170C34C8E65F0028D0
:10214000888652349FBAEF6AA17D102594FF1B5CEC
:10215000364BD966CDBB5BF7FA6D310F9372E472E3
:102160004F0881978C209526E10E45230B2A50B10C
:1021700002DEEF03A6AE9DFD4CA333278C2E9D5AA5
:1021800027762AD335F6F307F066655F864DAA7A7F
:102190005044D02897E7853C3864E00F007FEE1F5D
:1021A000E5F7DB03DA055376BDCD341449F2DAA442
:1021B000EC884AD2CDD54A7B430504EE5140F90064
:1021C000B230D3C3236B358D061B47B09B8B1CF2FB
:1021D0003CB8426E6C316CB30DB1EA8B7E9CD70774
:1021E0005397AF07BB93EFD7A766B73DCFD03E5805
:1021F000C51E0B6EBF9869CE5204D45DD2FFB7479F
:1022000012DD08BC9CFBFB879BC2EEE13A6B068AA1
:10221000BFC11FDB2B24570DB64BA65EA320351C78
:102220004AA3CBBCA653D2809B213838A1C3613EC0
:1022300096E3829801B6C3906FE60E5D77053D1C6C
:1022400059C06B21406FA8CD7ED8BC121D23BB1F87
:102250009009C7179E6A95B4552ED1663B0C753808
:102260001AE5229440F12E6971F65D2B3CC7C0CB74
:1022700029E04C74E74F01217C4830D3C7E22106A6
:102280008D835982CC6098AFDC9A9FC6C148EA9092
:10229000301E586537482665BCA5D37B09D6070094
:1022A000F3F0DBB09617AEB796E17CE1B9AFDF543F
:1022B000B4A3AAE9713092259D2E00A19C588E5D91
:1022C0004BA94208951DBFC03E2E8F5863C3D3B2A1
:1022D000EFE251BB3814960A86BF1C3C78D78315B1
:1022E000E17AA25DEFA2EEEC74016755143A7C59D5
:1022F0007A160966122AA6C9708FED812E5F2A25EB
:10230000C7289DCC044703908FC52CF79E671B1DE3
:1023100026875BBE5F2BE1160A58C5834E065849D7
:102320000DE866502694280D6B8C7C3085F7C3FC35
:10233000FD12110C78DA531B88B343D80B179C0796
:10234000FF6FFA64E4EC060523E505621E43E3BE75
:1023500042EAB8512442793500FBC94AE305EC6DE5
:1023600056D0D5C050CDD6CD3B5703BB6D68F79A3C
:1023700048EFC3F33F72A63CCC8A7B31D7C0686775
:10238000B3C155F1E525B694917B7B99A7F37B41C9
:1023900000266B6DDCBD2CC2F452CDDD145E4451C1
:1023A0005149143B4B2B5057B3BC4B446BFF678ECA
:1023B000DB8563162769BDB8C89592E3316F1813A2
:1023C00055A4BE2BAB473189299107924FA2538C5C
:1023D000A7F730BE48F9494B3DD44F6E0890E9123B
:1023E0002EBBDF7FB3960CF1F9EA1C125E939A9F25
:1023F0003F985B3AC43611DFAF993E5DF0E3B277A8
:10240000DEC42E9CC5A96F29CBF3844FBF618BBC62
:1024100008F9A817D906771C5D25D37AFC95B76310
:10242000A4B0DD129C6398D56B8624C0309FD1A5E3
:1024300060E4FC58032F7CD18A5E092E1595A10714
:10244000C85F9E38028F36A83BE48DCF023B439095
:10245000432641C55DFDA1AF37012F033DE88F3E07
:1024600094A27005B9158B2F494508677042F29404
:1024700084FDBB61E15A1CDE0740AC7F793BBA7535
:102480003CD1EFE88D4C70083137E0338E1AC5DF50
:10249000E3CD6012A55D9DA5868C25A69908D62260
:1024A00096D1CD70C0DB39629A8A7D6C8B8AFE60D2
:1024B000601240EBBC4788B35E9E77877BD00409EF
:1024C0009C91BADDD41FCEB4AA8D4CC73EDB31CF70
:1024D00051CC86AD63CC632C07DE1DBC3F14E243B8
:1024E000B940F948662D32F4390C2DBD0C2F9506F4
:1024F00031F981A0AD9776166C2AF7BACEAA406260
:10250000A095A25B9C7434F85AD237CA5B7C94D6EF
:102510006A31C9E7A73BF166AC0CB48D23AFBD5659
:10252000EB3335F5E3B92A36403DB96ED5688533CE
:1025300072555A1D52140E9E181374836DA8241DD3
:10254000B23B9DC16CD31013B9862362B76B2A06C8
:102550005C4FA1D791859B7C54571E7E5031AA03B6
:102560001FCED4FF4876ECF41C8CAC54F0EA45E066
:102570007C35091D8225D2885948EB9ADC61B2432B
:10258000BB79BB88191E5BE59D357AC17DD09EA0C5
:1025900033EA3D60E22E2CB0C26B275BCF55603230
:1025A0006413956C8B3D51197BF40B002671FE94DE
:1025B00067954FD5DD108D0264099442E2D5B402CF
:1025C000F28DD128CB55A1B408E56C184646CCEA6B
:1025D0008943826C93F49CC410345DAE09C8A6276D
:1025E00088B10D1FCDEBA68BE85B5A673AD7D3377E
:1025F0005A58F515A3DF2EF27EA160FF7471B62C38
:1026000054693DC40A272CCDB2CA666A573E4ADDDA
:102610006C03D7692459FA7999258C3D60031522FA
:10262000D0E10B39F9CDEE59F1E38C72442042A987
:10263000F4F0947A661C898236F49038B7F41D7BE6
:1026400024A2B2B3E0F292E46011552B069E6C7C9A
:102650000E7B7F0DE28FEB159259FC5826EFFC6143
:102660008CF5F80718222E5FD40994D49F5C55E3AB
:1026700030A6B61F8DA8AAB23DE052D34582696844
:102680007A18182A855DB1DBD7ACDD86D3AAE4F3CE
:1026900082C4F60F81E2BA44CF01AF3D474CCF462A
:1026A000F9E5C49EED2565420333901601DA5E0E0E
:1026B000DCCAE5CBF2A7B172405FEB14CD7B3829C1
:1026C000408149F1A76E3C2154482B39F87E1E7C8D
:1026D000BACE29568CC38824BBC58C0DE5AA6510DB
:1026E000570D20DF25452C1C4A67CABFD62D3B5C01
:1026F000304083E1B1E7070A16E71C4FE698A1696D
:10270000BC781AD9E0B26290679650C89C88C947D5
:10271000B8705040664AF59DBFA19324A9E669733D
:10272000EDCAC5DC344401E133FB843C965DED47E2
:10273000E7A086ED76950170E4F967D27B69B22552
:1027400064689813FB3F679DB8C75D41D9FBA53C02
:102750005E3B27DF3BCC4EE0D24C4EB53D682014AB
:1027600097D19D241EBD78B402C1585E00350C621D
:102770005CACBACC2FD302FB2DA708F5EB3BB660BF
:10278000D05ACCC16FBBEE348BAC4696E90C1B6AB9
:1027900053DE6BA649DAB0D3C181D061413BE83149
:1027A0004F2B069E12C7E897D80A32294F8FE4496B
:1027B0003F68186F4BE1EC5B1703552DB61ECF55E4
:1027C000583DC265101079589C8194506D089D8BBE
:1027D000A75FC512A92F40E2D491085764659A6695
:1027E000528CF57DE3B5763036CC99E7DDB93AD732
:1027F00020EE1349E31C83BD3301BA62AAFB561ACB
:10280000ECC99D5C506B3E941A377CA7BB572530B2
:102810005176344156AE73985C8AC5996783C41368
:10282000B9E1B35A465D3A42613FF1C787C113FC33
:10283000B6B9B5EC6436F81907B637A6930CF86646
:1028400080D08B5D6AFBDCC442481A57ECC4EBDED7
:102850006553E5B883E8B2D427B8E5C87DC8BD5054
:1028600011E1DF6E83376D60D9AB11F0153E353263
:10287000963BB725C33AB064AED55F724464D51DAC
:102880007D126233F87FA48F157CCD71C46A9FBC22
:102890008B0C22494345716E2E739F211259640E91
:1028A0009AC8BA0800E697C2E0C3E1EA11EA4C7D93
:1028B0007C97E79FE18BE3F3CD05A3630F453A3A9D
:1028C000274639D8312F8F0710A594DE83319D38E4
:1028D000806F99176D6CE3D17BA8A993938D8C3190
:1028E00019FEFF2A035D74F266DB247F493C9F0CCE
:1028F000EF9885BAE3D398BC14531D9A677C4C2299
:1029000098D31DAB299E665D3B9E2D34581692FCD4
:10291000CD7359F3FD1D8555F60A9525C3419A508F
:10292000E925F9A6DC6EC0BD331F1B64F4F33E79C4
:10293000893E839D8012EC828913A12823F0BF0574
:102940000BE0CA237013323659CFACD10ACF4A54A8
:10295000881C1AD249107496A7442AFAC38C0B78A3
:10296000E412C50DDDA08168FEFAA544C80DE74F4D
:1029700040524A8F6B8E741FEAA301EECD776257E7
:102980005F304F23BC8AF31E08DE0514BD7F579AC3
:102990000D2AE63414A5825EA1B771627218F45F45
:1029A0009DDB89170C088E39F578E7F3252060A7A1
:1029B0005D03BD064C8998FABE66A925DC036A1042
:1029C0004095B613E847DBE5E11026433B2A5DF36B
:1029D00076127838E9261FAC69CBA0A08CDBD4290D
:1029E000D0533333AF0AADD9E509D3ACA59D6638D2
:1029F000F0F788C88A65573CFABE2C05518AB34A5D
:102A000093D56867252B7CDA13CA224457C0C19836
:102A10001DCE0ACAD50BA8F190A688C0ADD1CD298C
:102A20009CC0DD5FEFD1CFD6CE5D57F7FD3E2BE8E2
:102A3000C23416205D6BD5259B2BED04BBC64130FF
:102A400048E156D9F9F2F20F2E6B359F7597E7AD35
:102A50005C026C5FBB98461A7B9A041468BD4B10ED
:102A600067EDF16831FDF051C23B6FD8CD1D812C6F
:102A7000DEF2D204435CDC4449712A0957CCE85B9E
:102A800063F17FD65F9A5DA98156C74C9DE62BE91D
:102A900057F220DE4C02F8B7F52D07FB202A4F2015
:102AA00079B0EB303D3B14C8302E65BD5A158975A1
:102AB000315C6D8F313C3C651F1679C217FB702568
:102AC0007515B62C7F36FA3E6C02D61C766FF9F57A
:102AD0006225B5652A14C7E8CD0A0353EA65CB3DE4
:102AE0005A24B80B55A92E19D150908FA8FBE6C8CF
:102AF00035C9A4882DEA8679688601DE915F1C2499
:102B0000AA6CDE402917D8283A73D922F02CBF8F3F
:102B1000D1015B23DDFCD716E5F0CD5FDD0E420869
:102B20004AFA6283AB20FFCD6E3E1AE2D418E15719
:102B30002BE639FC179617E3FD6917BCEF539A0D86
:102B4000CE10F4044EC3580385066E275A5B13B6A5
:102B50002115B9EBC770965D9C88DB21F354D60430
:102B6000D5B5BDDD16C17D5E2DDDA58DB6DE542942
:102B700092A234331708B61CD71A9918264F7A4AEE
:102B8000955FB15F0218A7F48F1B5C6B345FF63D55
:102B90001211E00085F0FCCD4818D3DD4C0CB511C6
:102BA0004B2A37AF91B2C324F24781717082DA9316
:102BB000F29E8986648584DD33EEE0234231964AB5
:102BC000D6FFA4084427E8A6D976159C7E178E73F5
:102BD000F2B3023DB648337751CC6BCE4DCE4B4F5E
:102BE000842524E25ACE1FA79E8AF5925672EA26C1
:102BF000F43CEA1CD7091AD2E6011CB714DDFC73B9
:102C00006F0B9DC46E61E2301723ECCA8F7156E4DE
:102C1000A64F6BF29B40EB48375F5961E5CE4230DF
:102C200041AC9B4479707E420A31E2BC6DE35A8527
:102C30007C1A845F2176AE4CD6E19C9A0C749E3847
:102C4000CEB9DC34AEB3FC64ADD048E32303509777
:102C50001B38C6627DF0B34588675A467953546184
:102C600028AC0E57F678BDC9E19C9127320B5BE585
:102C7000ED919BA1AB3EFC65903626D6E525C4259B
:102C80006EDED7F1A6063E3F0823068E2776F93E74
:102C9000776C8A4E26F6148C5947481589A03965F9
:102CA00073F7D2C3741FD2E94568C425415450C19B
:102CB000339EB9F9E85C4E626C18CDC5AAE4C51123
:102CC000194ABB14D4DBC4DD8E4F42983CBCB21908
:102CD0006971CA36D79FA84890BD19F00E32650FAA
:102CE000C6E0FDCAB1D186D481513B16E3E63F4F21
:102CF0009A93F2FA0DAFA8592A0733ECBDC7AB4C33
:102D00002E0A9C0824969E233847FE3AC0C448C722
:102D10002AA14F762AEDDB1782851C32F0939B6344
:102D200089D2783F8F788FC09F4D40A12CA730FE6D
:102D30009DCC65CFFC8B77F22120CB5A1698E47E90
:102D4000C3A11191E308D57B89749080D4902B2B7B
:102D500019FD72AEC2AED2E7A602B6853C49DF0EBF
:102D6000685A9B595881CCAE0EE2ADEB0F4F57EA33
:102D7000077FB622741DE44FB44F9D01E3923B40A0
:102D800013417684D2C4676735F8F5F73F4090A0C9
:102D9000DEBEE6CAFACF8F1C69A3DFD1540CC00493
:102DA000F85C468B812FC24DF8EF80145AF3A07166
:102DB00057D6C704ADBFE8AEF47661B22AB15B3531
:102DC000F4BB9374CC641EA7C3B0A3ECD984BDE557
:102DD00085E705FA0CC56B0A12C32E1832819B0FCA
:102DE00018738C5AC7DA01A311AACEB39D0390EDD4
:102DF0002D3FAE3BBF7C076F8EAD52E0F8EA1875F1
:102E0000326C7F1BC45988A4983238F4BC602D0FF3
:102E1000D9D1B1C929A91518C45517BB1B87C347F8
:102E2000484FEC71975344516E5D8CC97DB105F8E4
:102E30006BC6C3471AC162F7DC994676859BB8001A
:102E4000B06650C8505DE6FBB099A2B3B0C4EC6266
:102E5000E0E81A44EA5437E55F8DD4E82CA0FE0878
:102E6000D0EADE6876DD4D82235D684B204564C87C
:102E700065D6895DCDCF14B537D5754FA7293847AD
:102E800018C4794675DAD282F08D61B2D8D73BE6A4
:102E90000AEB47AC24EF5E35B4C633484C68782063
:102EA000C90239AD3A53D9238F5803EFCEDDC2643E
:102EB000B42FE1CF9073251590D3E4444D8B666C0D
:102EC0000C82787A21CF483B973E2781B20A6AF775
:102ED0007BED8E8CA7656CA93F438A4F05A61174C4
:102EE0006DC89DB9329D654D15F13A6075DC4C0495
:102EF00088E4C2DC2C714CB3FF3481FB7465137C15
:102F0000B475B1183DE59A5702A192F35931716831
:102F1000F535EF1EBAEC55848F398C4572A8C91E61
:102F20009B50A200D4A4E6B8B482C80B02D7819B00
:102F3000617595F19BCCE7576064CDC7A588DD3AF4
:102F4000F2DC35B6705789ABBC1F6CF66CEFDF0254
:102F500087D1B6BE68025385749E87CCFC2999241C
:102F600046303959D498C285EC59F65F98357E8F32
:102F70003A6EF6F22AA22C1D20A706A43111BA61DE
:102F800029909516F1A0D0A389BD7EBA6C6B3B0247
:102F9000073378263E5AF17BE7ECD8BB0C3120563C
:102FA00043D6344943938952F52212A506F8DBB97A
:102FB000221CF4C38F876D8F30979D4D2A6A673727
:102FC000D685E277F4B5466693618F6C67FFE8407B
:102FD000DD94B5AB1173ECA64DEC8C65F346C87E61
:102FE000C72EA21D3F8F5E9B13CD016C771D0F1363
:102FF000B89F98A2CF8F4C21D59D9B3923F7AA6DFE
:1030000047BE3DEB62753A5FB8A0BD8E5438EAF713
:103010009972744531E5C30051D52716E7E90413C9
:10302000A28EADACBF043B5884E88B14E843B729AB
:10303000DBC510083B581E2BAABBB38EE549542BA9
:10304000FE9CDC6AD21498780BDD488B3FAB1B3CAE
:103050000AC679F9FFE10FDA93D62D7C2DDE68449C
:103060009E4619945E35BB5154C7DD234CDCE633D4
:1030700062997F44D6B6A59363BD44FB6F7CCE6C4A
:10308000CE0763F8C6D89A4B280C5D433135112121
:103090002C777A65C566A8D4527324637E42A65DF8
:1030A000CA22ACDE88C6941AF81FAEBBF76E06B90A
:1030B0000F58598D388CAD88A82C9FE7BF9AF258CD
:1030C000683EE78DABCF0EE9A5767E379F6F035440
:1030D000825901BE0B5B49F0361EF4A7C42976570E
:1030E000F6CD0E71BF645A4B3C292C4638E54CB1E5
:1030F000B93A0BD556D0433670485B182437F96A75
:1031000088A8C609450220327389554B1336E0D290
:103110009F28333C2336E2838FC1AE0CBB251F7042
:10312000ED6C61E4F8B0A8C37DA8259E0E6600F79B
:103130009CA5BCF41F06E361E90BC4BDBF920C2E35
:1031400013C1BE7CD9F6189DE4DBBF74E6064A8441
:10315000D6604EAC22B5F520515E9550C05B0A7228
:10316000355A809B43093F0CFCAB4262378B4EE8DB
:103170004693225CF3171469ECF04E14BB9C9B0E33
:10318000AD2057FB8FD4BAFB0E0DF9DB6B9181EEAE
:10319000BF435563523181D4D87B333FEB041122B6
:1031A000EEBEB15DD59BEE8DB93F720A37ABC3C998
:1031B00091D7681CBFF1A844DE3CFD1C19446D3654
:1031C000148CBCF243173C9E3B6C85B5FC26DA2E72
:1031D00097FBA7680E2FB8CC443259BCE6A46741D0
:1031E0000027F676289D3B64EB68760E409D1D5DBA
:1031F0008406FC2103434B1B6A2455227EBB38798D
:10320000EE8FCEF86526BEC22CD680E814FF67E9A3
:10321000EE4E362F7E6E2EF1F6D27ECB7033B33467
:10322000CCD68186EE91C5CD53A785ED9C1002CEFC
:1032300083888058C18574EDE465FE2D6EFC76119F
:103240009B619C5BD06CAFB48084A5B2F4C9DF2DC8
:10325000C44DE9EB02A54F3D345F7D674C3AFC0855
:10326000B80E774989E290DBA340F4AC2ACCFB98F6
:103270009B87D7DEFE4F3521B60669F2543E6A1FA2
:10328000EA3407D399C1A460D65C1631B685C04034
:10329000958259F7233E33E2D100B91601AD2F4F85
:1032A000544EAE9441B2BE446CEF5718511C545F5B
:1032B00098048D362D6B1EA6ABF72E97A48454442C
:1032C00038B63BB71DD92C96089C12FCAA7705E6A8
:1032D0008916B6F3399B616F81EE44295F995134A9
:1032E0007C7DEA9FD0FC5291F65C93B0946C814A4D
:1032F000405C2847AA9A8E25B7932804A69CB8104C
:103300009C2818974947593D263F5324C5F8EB128E
:1033100015EFC314CBBF62028E51B777D578B820B2
:103320006EF0455ABE413975655F9C6DEDAE7CD03F
:10333000B651FF729C6B7711A94D0DEFD9D1D21701
:103340006A3E3F0718AFF227691052D719E53FFDD3
:103350002200A63C2CB7E322A7C665CC634F21729E
:1033600093A60753407FE3B49567332FD714A7ABD9
:1033700099107673A7D0FBD6C9CB7181C548DF5FA2
:10338000C9293BF4B9B79D1D758F514F4A8205D6A7
:10339000C49D2F31BD72C0F2B045155A85AC241FB3
:1033A000AA05958E3208D624EE20140CD1C14847C8
:1033B000A225FB065CE4FFC7E695E32A9E73BA00EC
:1033C000D690875CDE982E59DFA2C245D3B7BFE501
:1033D0002299B4F9603B5A11F378AD673E3A28035D
:1033E00026BB88EAF52644AEFB3B9784D97906369E
:1033F000504E69260C039F5C26D218D5E77D2972B2
:1034000039B90CBEC71D24488030638B4D9BF13207
:10341000089328020DC9DFD3451927466829E1051D
:103420005A499C2DB3EE82BA7CB92BF1FCC8EFCE81
:10343000E0D1B593AEAB2DB09B8D69139C0CC03918
:1034400050452C24C8BBBFADD98130D0EC0CC8BCD2
:1034500092DFC8F5A66635844CCE5882D325CF7846
:10346000689D48318E6BAE1587F02B9CAB1C85AAEE
:1034700005FA4EF0975AA7C932F83F6B07526B0016
:103480001C78959DE1CFE029E210639618DF81B6A4
:10349000396B5170D339DF572261C73B44E3574D35
:1034A0002D08CEB9167ECBF529BC7A414CF10734F4
:1034B000ABA7F42BCE6BB3D4CE759F1A56E9E27D41
:1034C000CB5EA5B6F4D470DE99DB855D7F520148F2
:1034D000819AEED340C4C9DBED29601AAF902A6B04
:1034E000971EE69AFCF42369D15F3FE01D2835570B
:1034F0002DD1EDE643AE64A74A3E2DD1E9F4D85F65
:103500000AD8B25B24F3EB779B07B92F471B30D85F
:103510003373EE4CF2E647C609216C27C8125846B1
:10352000D962102AB2BE434D16DC313875FB657086
:10353000D76829DE7B4A0D189067B11C2B2CB30588
:10354000FDA84DD2CC5EC0C883EFDF05AC1ACFA179
:1035500061CDF97DF2EFBEDB991E477BA356553B4B
:103560009581D57A2CA4FCF7CCF333436E28143222
:103570009D970B340D9DC2B6E1077356481A7731FB
:1035800082D44DE124C5B032B6A42B1A5451B3ED08
:10359000F35A2B284860D1A3EB36737AD279C04F07
:1035A0007F2FBF89B038C951A7E9DF0265BD9724D5
:1035B00053E480789CC0FFFF928EF9CACE67451213
:1035C0000DC5860C448B34DC51E694CCC9CB371343
:1035D000B93C3E644DF7226408CDE3BAC2701124B1
:1035E000B473C40A86ABF93F35E41301EE1D91F0C4
:1035F000AFC4C6EB6050E74A0D00876C9612863F59
:10360000DE0D2A78C90C9A55858371EAB2CD1D5515
:103610008C23EF315B86627F3D61737976A74A50D8
:10362000138D0436FAFC189CDD9D8973B39D152912
:10363000AAD0929F0B359FDCD4198A87EE7EF5269F
:10364000B1EF8756D52CAB0C7BF17A2462D1805137
:1036500067245A4F345AC1856930BA9D3D94414020
:1036600096CCEB43BAEEC0C3AF9CEA269C9C748D0B
:10367000C6CC771CEE95FAD90F348476D9A12014E4
:10368000DDAA6CA24377214BCEB78A6424B4A64747
:10369000E3C9FB037A4F1DCB19D000984231D912F0
:1036A0004F5937D39977C6007BA43AB240513C5E5C
:1036B00095F35FE35428184412A0594331924F1BED
:1036C000510915899D105C3E6A69E92D91FACE3940
:1036D00020305F973FE4EA20AE2D137F2A579B23CB
:1036E000B16698A43030CF3359485F21D2731F257B
:1036F000F6F4DE5140AA82ABF6239A6FD591F15FC2
:1037000068902DAC33D49E812385C95F79AB832823
:103710003DEB9355807245EFCB368F756A520C02A4
:10372000BCDBD89EF83498776CA47CDCF9AAF2C88C
:1037300074B0E1A3DC4C52A97738311546CCAA020B
:1037400089CC42F059EF31E9B64B128E9D9C582C32
:103750009759C7AE8AE1C8AD0CC502560AFE2C4582
:10376000DF777864A0F7A0869F7C600E2764C4BBD7
:10377000C911FBF125EA17AB7B874B307B7DFB4CF6
:10378000FE759BB86C3DB47280DC6A9CD994C654BB
:103790009F4CE33E37AAC3B8645307392B62B41475
:1037A00012EF8997C29986E20D1957DF71CD6E2B02
:1037B000D070C9EC57C843C3C53A4D43BC4C1D5BE0
:1037C000269F0ACC1526FBB6E5CC8DB82B0E4F3ABA
:1037D00005A769338B490113D12D595812F7982F3A
:1037E000569E0FB54CA7940C20138E8EA9F41F5B28
:1037F000670F308221CC2A9AF9AA06D849E26A3AA0
:1038000001A7544F44AE122EDED7CBA9F03EFEFCEA
:10381000E05D83750D89BFCE544561E7E962801D87
:103820005A7C90A985DA7A65620FB991B5A80E1A0B
:10383000E9B434DFFB1D0E8DF35FF2AEE88C8B290B
:10384000B20CF7EF5379922A767015792AC9894B11
:103850006ACFA7307A45189485E45C4D40A8B83407
:10386000DE65210AEA727A83F679CF0BB407AB3FA3
:1038700070AE3877C7361652DCD7A7031827A66B69
:1038800035336983B5EC6EC2FDFEB563DF13A8D591
:103890007325B2A49AAA93A26A1C5E46DD2BD67148
:1038A00080DF78D328CC3365B4A40F0A7943DBF6E4
:1038B0005ADA01F7F95F64E3A42B17F317F3D57411
:1038C000F55EF7B1DAB52DCDF565B016CF957FD79A
:1038D00085F0493FEA1F57143D2B2B262136331C18
:1038E00081CAD96754E56FA8378C292B757C8B3931
:1038F0003B62ACE392086DDA8CD9E94745CCEB4AE0
:10390000C9016D271B07F012708CC486C5BAB8E7D1
:10391000A9FBD6719B12085392B73D5AF9FB885DFB
:1039200010B654739E8D400B6E5BA85B53326B8058
:1039300007A2584A033AE6DB2CDFA1C9DDD93B17C1
:10394000DF7258FE1E0F502BC11839D42E58D6588E
:10395000E03A67C98E27EDE619A39EB113CDE106C3
:10396000236F166F51ADD040BE6AAB1F93328E11DC
:103970008E084DA0145EE33F6662E126356080301C
:1039800053035B9E62AF2B4747048D27900BAA3BE6
:1039900027BF4396465F780C137B838D1A6A3A7F64
:1039A0000B803D5D3944E6F7F6ED01C955D5A89584
:1039B00039632C593078CD687E30512EEDFDD030F2
:1039C000B33312F21A4D59E09C4DCCF08EE7DB1B5D
:1039D000779A498F7F1865696898092C2014920A94
:1039E0005047B8681E97B49CCFBB6466297295A0F7
:1039F0002B41FA7226E78D5CD989C55143081546DB
:103A00002EA0B9AEC01990BCAE4C03160D11C7550F
:103A1000EC32996501F56D0EFE5DCA95280DCA3B25
:103A2000A4625D3CBC31F040607AF0CF3E8BFC1963
:103A300045B50F13A23D1898CD138FAEDDDE31567C
:103A4000BF01CC9EB68E689C6F8944A6AD83BCF046
:103A5000E29F7A5F5F952DCA4182F28D03B4A84E32
:103A600002D2CAF10A46ED2A83EE8CA405533046F1
:103A70005F1AF1494577219163A42C543009CE2473
:103A800006C106FDF590E81FF210885D3568C4B5E3
:103A90003EAF8C6EFE0878824BD7068AC2E3D441D3
:103AA000850BF3FD55A1CF3FA42E37368E16F7D2E6
:103AB00044F89264DE64E0B280424F32A728995401
:103AC0002E1AEE63A7326EF2EAFD5FD2B7E491AE32
:103AD000694D7FD13BD33BBC6AFFDCC0DE661B492E
:103AE000A732EAC73DB1F59898DB167ECCF8D5E34E
:103AF00047D9F8CB52BF0AACACE45EC8D038F30863
:103B0000A164DAD08E4AF0754B28E267AF2C22ED23
:103B1000A47B7B1F79A33482678B01B7B0B8F64CC6
:103B2000BD731A9921A883C37A0C32DF01BC27AB7D
:103B3000637077841B333DC1998A07EB824A0D532A
:103B40002548F9E130364C005A53AB8C26782D7E4F
:103B50008BFF84CC232348C7B97017103F75EA65E3
:103B60009EBF9A6C4573696D80A80049FCB27F25A1
:103B700050B8CFC812F4AC2B5BBDBF0CE0E7B30D5F
:103B8000636309E23EFC663D6BCBB5617F2CD68159
:103B90001A3B44134204BE0FDBA1E12119ECA4023D
:103BA000A2B8243B9A25E65CB8A0AF45CC7A57B8BA
:103BB0003770A08BE8E6CBCCBF097812513C143D9E
:103BC0005F79CFF16261C8F5F257EE2619868C1144
:103BD0007835061C85242117CF7F06EC5D2BD13666
:103BE0005745157991276D120A3A78FC5C8FE4D518
:103BF000AC9B17DFE8B6BD365928A85B8817F52EB1
:103C0000DCAE588C4E973746A441F0ABFB22EFB99F
:103C10008A7180E956D985E1A6A843B1FA781B2FAD
:103C2000512F5B30FBBFEE96B8969588AD38F9D32F
:103C300025DDD546C72DF5F095003ABB9082965705
:103C400001E1200A43B81AF747ECF0248D6593F39D
:103C5000D1EEE26EA80975CFE1A32ADC353EC47D22
:103C6000C3D97D88656696855553B04B319B0FC986
:103C7000B17920EFF88DE0C62FC18C751620F77E44
:103C800018973E275C2A785A94FD4E5E99C6763581
:103C90003E7D231F05D82E0F990AD5821DB84F04EB
:103CA000D9E307A9C518DFC159634CCE1D37B357F7
:103CB00049BB01B2344570CA2EDD309C3F82797F0A
:103CC000E813B5A339D23483D8A81FB9D47036C14C
:103CD00033BD90F53641B512B4D984D773034E0A7B
:103CE000BA87F568F01F9C6ADEC850004E89270825
:103CF000E75BED7D5599BF3CF0D6061C43B0A96447
:103D000019297D5BA1D6B32E35823AD5A0F6B4B081
:103D1000475DA48943CE56716C3418CE0A7D1A07CC
:103D20000BBA87C8AA2D07D3EE62A5BF05292601C5
:103D30008B76EFC0023054CF9C7EEA4671CC3B2C90
:103D40003144E12052350CCC4151B1090795650D44
:103D5000365F9D201B62F59AD3557761F7BC697C6D
:103D60005F29E804EBD7F0077DF3502F2518DB100F
:103D7000D7981717A3A951E91DA5AC22739A5A6FBA
:103D8000C5C6412F0C00A18B9BFBFE0CC1799FC4C3
:103D90009F1CC53C7047FA4ECAAF47E1A2214E496D
:103DA000BE44D9A3EBD429E79EAF788040099E8D0D
:103DB000039C86477A562545243B8DEE8096AB02C0
:103DC0009A0DE5DD858AA4EF49A2B90F4E229A210A
:103DD000D9F61ED91D1F09FA34BB46EACB765D6BB6
:103DE00094D90CEC6C555788BA1DD05C6FDC7264AA
:103DF00077B4428F146901AF54732785F633E30A11
:103E00002225781E1741F9E0D336690374AEE6F136
:103E100046C7FCD0A23E8B403E31DD039C86FB169C
:103E20006209B63397198E2833E1ABD8B472FC24FB
:103E30003ED09109EDF7114875D0708F8BE3813F2B
:103E4000FEAFD97ECC0F917F4B876524A1B85C541F
:103E500004470C4BD27E39A89309F504C10F515089
:103E600024C8175F357FDB0AA49942D7C323B974EE
:103E7000F7EAF8CB8B3E7CD53DDCDE4CD3E2D30AAF
:103E80009D246E33C50F0C6FD9CF31C319DE5E741C
:103E90001CFEEE0900FDD6F2BE1EFAF08B157C1258
:103EA000A279982E427C19F64736CA52D4DD4AA42C
:103EB000CBAC4E4BC13F419B684FEF077DF84E3571
:103EC00074B951AEC48FA2DE96FE4D74D373991DA2
:103ED000A84838870B68406295DF67D17924D84EAF
:103EE00075D9C56022B5E3FEB8B041EBFC2E355064
:103EF0003C65F6A930AC08886D233905D2922D3087
:103F00003D28A4BCA2C11378D93D86A191F062EDF1
:103F100086FA68C2B8BCC7AE4CAE1C6FB7D3E5100A
:103F200077F1E0E4B66FBC2D936ABDA429BFE1042C
:103F3000E8F67A78D466195E60D026B45E5FDC0E4F
:103F4000678EDA53D6BF535441F6A924EC1EDCE940
:103F5000238A57033B2687BF72BA1C36516CB4457F
:103F6000A17F4F31BF2A40A950F48C8EDCF157E27B
:103F700084BEA8234BD5BB1D3B71CB6DA3BF77215E
:103F8000E4E37F8ADD4D9DCE300E6276566413AB3E
:103F900058990EB37B4F594BDF291232EF0A1C5C44
:103FA0008FDB79FABC1B0837B3595FC21E814860AA
:103FB0008724839C65767A08BBB58A7D3819E64AE2
:103FC0002EA34453AAF6DB8D78401BB4B4EA887D57
:103FD000600D134A97EBB05E033EBF171BD9001A62
:103FE00083FB5B98447E1161363196712A46E0FC72
:103FF0004B9025D44834AC83643DA45BBE5A6875AD
:10400000B2F261EB3309966E5249FFC9A80F3D54D5
:104010006965F67A107572DFAAE6B023B6295513E2
:1040200018D5D1ADD7DBF018111FC1CF88789F9775
:104030009B751471F0E13287013ACA651AB8B579F7
:10404000FE832EE2BC16C7F5C18509E819EB2BB437
:10405000AE4A251437A69DEC13A6901505EA7259B1
:1040600011788FDC20ACD40FA84F4DAC94D29A9A23
:10407000340436B3642D1BC0DB3B5F90959C7E4FB0
:104080002E308157BC4B67620FDCAD89390F52D897
:10409000C6D9FB53AE99298C4C8E632ED93A9931EF
:1040A000FE9952353D44C871D7EAEBDB1C3BCD8B02
:1040B0006694A4F19E499280C8AD44A1C4EE421911
:1040C000924923AE1953AC7D923EEA0C913D1B2CD4
:1040D00022113C2594E43C5575CAF94E31650A2AF3
:1040E000C227F9F77F93B72D35A6D017061F74DBCB
:1040F00076AF5511A2F38259ED2D7C6418E2F64C8F
:104100003A791C3CCD1A36CF3BBC355AACBC9E2FFD
:10411000ABA6CDA8E960E860131AEA6D9BC35D0504
:10412000B65B8DC27C2219B1ABFF4D77BC4EE20766
:10413000892CA3E4CE783CA8B624AA1077301A12B2
:10414000974A039F5E5DDBE42DBC343009FC53E1EC
:10415000B1D35195914605462DE5407A6CC73F3362
:10416000C98374C73E7159D6AF962BB877E0BF8824
:10417000D3BC971023289E289B3AED6C4AB97B52FA
:104180002E485B992A993D560138386E7CD005340B
:10419000E5D8642FDE355048F7A9A7209B06896B28
:1041A0000D22706241A02A814E5B24F9FA895A9946
:1041B00005EF7250CEC4ADFF73EB73AA0321BC238D
:1041C00077DBC7B58CFA824055C134C7F8868606BE
:1041D0007EA5E7F6D9C8E629CF9B63A708D3730469
:1041E000059E58032679EECA92C4DC4612424B2B38
:1041F0004FA901E674EFA1021A3404DEBF732F1039
:10420000C645577FABB918EB90C68757EE8A3A027E
:10421000A9AFF72DDA1227B73D015CEA257D5936A3
:104220009A1C51B5E0DAB4A206FFFF2B2960C87AC8
:10423000344250F55D371F982DA14EDA25D76B3FDC
:10424000AC5860107B8D4D735F90C66F9E5740D900
:104250002D930292F9F86664D0D660DA19CC7E7B91
:104260000D695C693C37C2786E904206662E25DD8A
:10427000D22BE14A44441D955639740176AD35423E
:104280009BFA7CA7514AAE6D5086A3E7543626822E
:10429000DB822D8FCDFFBB09BACAF51B66DCBE03DE
:1042A000F57589070DCB586298F2899154422949D6
:1042B000E46EE3E223B4CAA0A166F0CDB0E27C0EC6
:1042C000A3858CC43A6494C4AD39613CF41D36FDB9
:1042D000484DE93ADD17DB094A67B48F5D0A6E661F
:1042E000F9704BD9DFFEA6FE2DBAFCC151C030F1EA
:1042F00089AB2F7F7ED48248B5EEEC8A135652618B
:104300000DCB70484EF6BB2A6B8B45AAF0BC65CD31
:104310005D98E875BA4EBE9AE4DE14D510C80B7FDE
:104320006F13F426A46B00B93530E0579E36678DC5
:10433000283C464FD9DFC8CBF5DBEEF8BC8D1F0D0E
:10434000A0137273AD9DAC83982EF72EBAF8F69F2A
:104350005769EC43DD2E1E3175ABC5DE7D903A1DED
:10436000DC81D03E319316BA80341B85AD9F322953
:10437000CB2103033C012801E3FD1BA3441B0100E7
:104380000C6CC63F6CA0DF3FD20DD64D8EE3405D76
:10439000714D8E26388BE37AE157836E918DC43A46
:1043A0005CA70A6A691F56166ABD52585C72BFC183
:1043B000AD66799A7FDDA811261085D2A288D963CF
:1043C0002E23BDAF5307120083F6D8FDB8CE2BE9DC
:1043D000912BE784B36916F866A068232BD5FA33CE
:1043E000161EE4C5C649065435773F333064F80AD3
:1043F00046E705F3D2FCACB2A7DC56A229F4C016FE
:10440000E8CF22C4D0C82C8DCB3AA1057B4F2B0717
:104410006FA5F6ECE6B6FEA3E2710AB9CC55C33C33
:1044200031913E904394B6E9CE37567ACB94A4B8F6
:104430004492BABAA4D17CC86875AE6B42AF1E6311
:104440009FFE66DA1004E9B3A6E5166C524BDD85D3
:1044500083BFF91E61973DBCB519A91E8B649955A0
:10446000E80D70A3B975D9475205F8E2FBC5807213
:10447000E15DE432278F6553B5805F667F2C1F4373
:10448000197B8F85446302D64A51EAA12F35AB14BC
:10449000D7A990201A440089263B25915F71047B9F
:1044A00043AEF6AC28BDED83B47A5C7D8B7C35865B
:1044B000442CEBB7694740C03F58F6C2F57BB3596F
:1044C000C6BAE6C480C276B30B9B1D6DDDD30E97D2
:1044D00044F90B4558959AB023E2CD57FAACD04831
:1044E00071E6AB7DE4260FB6373A2F6297A1D1F182
:1044F000940396E97ECE0842DB3B6D33914123164F
:10450000F67F26F6DE99E4B943082C747BCA7277ED
:10451000B1F2A4E93F15A0230650D0D5ECDFDF2C83
:104520004086F31FD69C49DDA0253606C39BCD29C6
:10453000C33DD73D02D8E25131923B207A70254AE3
:104540006AEDF6538A66B72AA170D11D58424230EF
:104550006101E23A4C140040FC498E246D892157D8
:10456000AE1B18FD17556E0BB463B92B9F622290DA
:1045700025460632E9BC0955DA133CF674DD8E5740
:104580004EDAD0A191505D28083EFEB5A76FAA4B28
:10459000B39393E17C17E563FD30B0C4AF35C90335
:1045A0003D0C2B49C6767299FC05E2DFC4C2CC47AC
:1045B0003C3A62DD849BD2DCA2C7880259ABC23E82
:1045C000B97BD8E47BD2A0A1ED1A3961EB4D8BA960
:1045D000839BCB73D0DDA099CECA0F205AC2D52DB4
:1045E000CBD132AE093A21A7D5C2F540DF872B0FD8
:1045F00029AB1EE8C6A4AE0B5EACDB6A6CF61B0EE4
:104600007E882C79E9D5ABE25D6D92CB1800021A59
:104610001E5FAEBACD69BABF5F8FE85AB348057363
:10462000EEB8A8CBA35135C4165F11B21D6FA265B9
:1046300050388CAB524F0F76CAB81D413B444330C3
:1046400034E3D6A14B095B80193F350977F13EBFB2
:104650002B702206CB063F42DD4578D877225A5888
:104660006289D433825F8AA17F2578ECB5C49866CD
:10467000FF413E37A56F8EA71F98EF5089275676CA
:10468000C0C81FD559CFC338F2B60605FDD2ED9B81
:104690008F0E57AB9F10BF26A646B8C1A860413FFA
:1046A0009DCF86EAA37370E1DC5F1507B7FB8C3AF8
:1046B0008E8A8331FCE7534816F613B684F4BB2880
:1046C0007C6C136F5C2F61F2BE11DDF607D1EAAF8F
:1046D000336FDE13D29A7E525DF7888135CB791E17
:1046E000F1E3F7EEC3363401F8109EFE7F6A8B8249
:1046F000FCDEF9BCE508F97F31383B3A1B95D765FC
:104700008181E0F5D853E977D9DE9D29440CA58451
:10471000E52545860C2D6CDCF4F2D1392DB58A47A0
:1047200059D15292D3A4A66607C81A87BCE1DDE529
:104730006FC9C1A6406B2CB81422211A417AD81631
:10474000156206425A7EBDB3C1245A0CCDE39B8745
:10475000B794F9D6B15DC057A68CF365817CF82873
:1047600083054ED5E2D5A4FBFA99BD2ED7AF1FE243
:104770008F77E96E73C27A49DE6D5A7A570B991FAB
:10478000D6F7E81BAD4E34A38F79EAACEB501E7D13
:1047900052E00D529E56C6773E6D4D53E12F88452F
:1047A000D68379755D346966A611AA1711EDB662D4
:1047B0008F125E985718DD7DDDF626F6B8E58F6816
:1047C000E46F3C942999ACD8A29283A361F1F9B526
:1047D000F39AC8BE13DB992674F005E43C84CF7DC0
:1047E000C032474A48D6906C993256CAFD4321D50B
:1047F000E1C65D91C328BEB31B1927737E68396774
:10480000A6755638142078EFE8A9FDAA309F64A257
:10481000CBA8DF5C50EBD14CB3C04D1DBA5A11464A
:10482000C01A0CC89DCC6DA636A4381BF45CA097AA
:10483000C6D7DB95BEF3EBA7AB7D7E8DF6B8A07D2A
:1048400076DAB5C353190FD49B9E1121736FAC1D3B
:104850006059B2FE2160CC034B4B67837E885F5A60
:10486000113DA170CF01638FC4D00D3515B8CECFE7
:104870007EA4BCA4D49702F734144DE456B669362E
:10488000B943A6A0D328969E6420C3E600CBC3B547
:1048900032EC2D7C8902539B0CC7D1D5E27AE343DD
:1048A00033E1A6ED063F7E38C03AA199511D30672D
:1048B00011382636F8D85ABDBEE9D54FCDE6216A63
:1048C0005FE646300A17C6F12435D2002A2A71580D
:1048D00055B7828C3CBDDB6957FF95A1F1F96B5848
:1048E000E3B29966122941EF01138D704708D37125
:1048F000BDB08211D0325432368B1E00071B3745B3
:104900000B79F85E8D08DBA6E5370961DCF078529B
:10491000B86EA161D24903AC7921E59037B0AF0EF2
:104920002F044837C155059611AA0B82E6419A21FA
:104930000C6D487338F7811C61C6025A67CC9A30F7
:104940001DAE750F5E80405130CC6226E3FB02EC59
:104950006D3992EA1EDFEB2CB35B43C54433AE44A2
:10496000EE43A5BBB989F29C4271C95A9D0E76F3FC
:10497000AA60934FC6E5821D8F67947F1B22D56284
:104980006D93D0189C294C520C1A0C8A6CB56BC8CC
:1049900031864ADB2E0575A3624575BCE4FD0E5CCD
:1049A0003C7AF73A26D485754D14E9FE117BAEDFCB
:1049B0003D19F759807006A537209283539AF21457
:1049C000F5D7B225DC7E71DF4030B599DB70F92177
:1049D000624CEDC3B73492DA3E09EE7B5C36725E10
:1049E0007F21714507FC5B575BD994065D6779377A
:1049F000331E19F4BB370A9ABCEAB4474C10F1775E
:104A00003EB3082F0639937DBE329FDFE559965B92
:104A1000FDBD9E1FAD3DFFACB74973CB5505B270D0
:104A20004C2C1155C51351BECD1F889A3A42886649
:104A3000473B505E857766444A40064A8F39340EBC
:104A4000E8BDCE3ED9227DB6072F822741E8B309C3
:104A50008D6D5BB01FA63F747223368A3605545E97
:104A600028194B3E090B931840F6F3730EE1E37DD2
:104A70006F5D3973DA1732F43E9C37CAD6DE8A6F1F
:104A80009AB2B7FD3D1240E391B21AA2E1977B487A
:104A90009E94E6FD027D96F997DED3C82EE70D7849
:104AA000BCE79A084585E20A064D7F1CCFDE8D38AB
:104AB000B811480A5115AC38E48C9271F68BB20EDD
:104AC0007227F400F3EA1F67AA418C2A2AEB728F3F
:104AD00092323797D77FA129A687B532ADC6EF1D91
:104AE000A79551EF1ABE5BAFED157B9177128C1431
:104AF0002EDAE57AFBF791296728DDF81B207D4641
:104B0000AD4FEF749A91FE95A208A3F6EC7B823A22
:104B1000017BA409D3014E9697C7A35B4F3CC47198
:104B2000A9E77A56BDF41EBCBD9844D6B24C623F8C
:104B3000C84E1F2CD26410E4014038BAA5C5F92E26
:104B4000CD749EFAF66DFDB67A26AFE4BC7882F19C
:104B50000E99EFF1D0B3558293F2C590A38C755A9C
:104B6000952446D91027B7A203507DD5D2C6A83ABE
:104B7000CA87B4A0BF00D4E3EC72EBB344E2BA2D11
:104B800094DC611D8B91E08C6630819A4636ED8D08
:104B9000D3AAE8AF29A8E6D43FD439F62780730A10
:104BA000CCE1FF572F4A0F98439883E10D0D670022
:104BB000FD15FB494A3F5C109CA6265163CA982606
:104BC00078BAB032883165E78BFF5C92F7311838DC
:104BD000CC1F29A0911BA80807EBCA49CC3DB41FE4
:104BE0000ED93D5E2F703D2E8653D2E418093F9EAC
:104BF0006AA94D02F63E775E3233FA4A0C4B003C0E
:104C00002BB8F406AC46A99AF3C406A8A584A21C46
:104C10008747CDC65F26D33E17D21FCD01FD436B1C
:104C200044C597464B5DA7C7BFFF0FDF48F8FD158A
:104C30005A7846AAEBB9682814F7525B10D7685A1D
:104C4000F30E763E5842C7B590B90AEEB952DC75FC
:104C50003F922B07C22714BFF0D9F06F2D0B427380
:104C6000061E859ECBF62CAFC43822C61339598F49
:104C700073F3FB9996B88ADA9EBC34EA2F63B53D8C
:104C8000D8D95DF72BEE6EF4A5596739F6B1170D3B
:104C900073729E4931D1F21B135FD749DF1A320478
:104CA000D5259882B190492E91899A3E87EBEAEDFD
:104CB000F84A704C393DF0EE0E2BDF95A47E195961
:104CC000AE5AE5E41960E104E9922F7E7A437BE76E
:104CD000A49A156FC12DCEC7C00CD7F4C1FDEA450B
:104CE0002BD745808501846951062FCFA2FA224C2B
:104CF000C62D226B65361A94DEDA6203C8EB5E5A63
:104D0000EDB1CCCF24460EB695035CBD92C2DB5903
:104D1000C98104DC1D9DA03140D9565DEACE733FA8
:104D2000C68D4E0AD1BFA7B739B3C9447E0057BE5E
:104D3000FAAE57157F20C160DB18622691880526E0
:104D400004FF6083A604F759F4E66176DE3FD9C319
:104D500051358712732A1B83575D614E2E0CAD545B
:104D600042E576C63C8E814CADCCCE03932C425EA0
:104D7000089F12B4CACC07ECB84344B210FAED0D48
:104D80002A522BB8D5673BEEEBC1A59F4663F1369F
:104D9000D39FC16EF2D2B4A508947AA7BAB2EC62DE
:104DA0003D2B15615279EDE5D1D7DD0E7D35624998
:104DB000714C6BB9D0C88274BED866A919F9592E46
:104DC0007428B6AF36280792A504E179855ECD5FD9
:104DD0004AA130C6AD01AD5A983F6675503D91610C
:104DE000DA31321A362DC60D70022094325847FA45
:104DF000CE94953F5101D8025C5DC031A1C2DB3D2C
:104E00004BC55ECEF90FDC9A0D132F8C6B2A9C03D9
:104E10001595F8F0C70780026BB304AC148396783D
:104E200014BB9627A257AAF321DA079BB7BA3A8890
:104E30001C39A03118E24BE5F90532D838FBE75EA2
:104E40008E6A4441CBFD8D53F9374943A9FDACA58A
:104E5000788C3C268D90AF46090DCA9B3C63D0618F
:104E60006625DBFF35497463BB680B78896BBDC56C
:104E700003EC3E5580321B6FF5D7AE47D85F966E78
:104E8000DF73FCF8BC28A3ADFC37F0A65D6984EEA7
:104E900009A9C238DBB47F63DC7B06F82DAC235B49
:104EA0007B5280EE53B9D29A8D6DDEFAAA198FE843
:104EB000CF820E150417710EDCDE95DDB9BBB97912
:104EC000C226316A4055B3EB93C3C868A88363D246
:104ED000827AB9E529640C6C4721FDC958F1655007
:104EE00074739F8EAE7D99D11608BBCFF8A232A005
:104EF0000A5F446D12BA6CCD34B8CC0A4611A81BB7
:104F00005499420CFB69817067CF6ED7AC0046E1C3
:104F1000BA45E6708AB9AA2EF2FAA4589EF38139EE
:104F2000930A2359758AFB185DF4E660698F161D94
:104F3000B53CA91445A9853AFDD0AC053708DC3845
:104F4000DE6FE66DA5DF45C83A48402C00A552E16A
:104F500032F6B4C763E1D2E9651BBCDC2E45F43000
:104F6000409775C582276D85CCBE9CF9694513FABB
:104F7000714EEAC073FC448869243F591A9A2D6324
:104F8000A6CB07B8156BBBF6D7F054BCDFC7231808
:104F90000B67296E03971DBB574AED4788F4240B16
:104FA000A7840CED11FD09BF3A699F0D8171F06373
:104FB0007987CF572D8C9021A24BF68AF27D5A3AF1
:104FC000C7EA1B51BED4DADCF2CC26ED758053A4BF
:104FD000659A5F009FFF9CE1631F487544F7FC34AE
:104FE000CA6797784CE097C17D46D938CB4D71B8E8
:104FF000A85FF9838288DE55F763FA4D16DC3B3DE6
:1050000098AACF78AB1DBBA5F2720B1967A2ED5C15
:105010008E60920A11C90993B074B32F04A31901C9
:105020007D17C2E89CD8A267C1D09568F6A59D6699
:10503000B0A282B2E59865F5730AE2EDF188C05638
:10504000176EA810113D6D33FAB2750B3288F3D785
:1050500088290725763315F9878B10996B4C6709DA
:10506000028FF324AC5F1B58BD0CE3BAFEE90BA919
:10507000F092CF8A0269219A8F035983A47E8B0311
:10508000F86F319921F84E9F4F8DA7EA82D2492FB0
:105090007431EF5AABA5710965EB695902315E6E47
:1050A000FB93E587F5626CB1713E5DCADEED99490F
:1050B0006D3ECC14E0C191B4A8DBA8894711F50876
:1050C000226206630EFB04333FBAAC87890635FBC8
:1050D000A361108C772419BD208683D143AD58304D
:1050E000D06376E5FD0F3C3210A62EA238DFC30553
:1050F0009A4F99ACBD8AC7BD99DCE3EFA49F5426B3
:10510000D6F96B1E465A1D7481A57777FCB305232B
:10511000D9D37464A27455D4FFE00164DCE126198C
:105120006E663FAF498546DBA50E4AF104CF7FD7B7
:10513000470CBAA4F73FF23D853CCE32E1DF103A8E
:10514000A0CE17EA8A4E7FE0FDC11F3A4615D52F43
:10515000F1C0F231FD225317155D1E861DD0A11F2F
:105160003298597D945580CC2055F137DA56461E39
:105170002093054E74F7F69933CF756ABC63357783
:10518000AB94DFD100ACDC38E90D08D1DD2B712EFA
:1051900062E2D5FD3EE9137FE5019AEE18EDFC735E
:1051A000B39C136308E9B106CD3EA0C567DA93A4AA
:1051B000328963ADC8CE778D444F861B706B421F1A
:1051C000011C91414C26C9EF252CA217B8B7A3F1B9
:1051D00047140FF36BDA755890B0311D27F51A4E4E
:1051E0005225A191C8357EF1769C5E5753816BB7ED
:1051F0003E729B0D6F4083FA38E4A73F1BBB760BD2
:105200009B93927FF9C1B8086EAB44D4CB7167BE53
:105210001780BB996364E52255A972B71ED66D7BD2
:10522000923DF350E8C1ADB7CFD58C604FFA987975
:10523000DB5BFC8DBD2D96AD4F2F1DAFCE9B3E7021
:10524000C7D201ABF9AB3057183B1440DC76FB16E4
:1052500081B2CBA065BE6C86FE6AFF9B659BFA534C
:1052600055548894E9C8146CE5D4AE65665D3A84FB
:10527000F15AD6BC3EB71B18501FC6C4E5938D39F2
:10528000F348E23367D14B1C5F0ABF1587129EBDFE
:1052900076030BA1F08C3FD4131B19DF5D9BB05339
:1052A000F2E3E7D2607C87C3B18B8230A0AA343BA3
:1052B00038F19E73E7263E287705C302909C9C69CF
:1052C000CCF1465923A706F37DD9E5CCB518179242
:1052D00075E9B48147D2CD2807D9CD6F0CF3CA51F7
:1052E0000AE0747642A70BA6F37B7AA170850E6361
:1052F000CC2433CF3D565837AAFD832329AA045521
:10530000C754AC189AF97A730FB31CC5DC78339084
:10531000C70CE14C33BC892B9AE9F889C129AE123C
:10532000CF010D1FCBC09EA9AEF7343ACCEFD10D03
:10533000224E9CD02175CA55EAA5EB58E94FD15FA2
:105340002CAB4528DF2DDCB593E97F0AB19194069B
:1053500046E30240D6F3AA4DD17464586EF23F0979
:105360008ECB93BF5EFE423C5F56D43651A8DFBE63
:10537000E82042889E85F0E028D12507963FD77D1A
:1053800029980568FE240DB1E523AFDB720673751D
:1053900029AC57B43A256713A470B486BCBC592F06
:1053A0005F131799427D8483D7037D561F911BADF0
:1053B000D1AA77BED948777E4AAF512E2EB4585421
:1053C00001C391B660D541701EE7D7AD3F1B208564
:1053D0008555331163E1C216B12808013D5EA52A47
:1053E0004F44070CE69251ED101D42742D4EC542FC
:1053F00064C8B5FD824C2B356486768A4A00E91371
:10540000DBCE2F8345889D7363F86BAEC9D638FA1F
:10541000F7FE4FB7CA0DBC325EE4BC14887E9373AE
:105420007F873B19C9002EBB6B50DCE090A8E3ECF2
:105430009F64DE36C0B7F3EC1A9EDE980804465F20
:105440008DF47B29167103B93468F0D4223BD1A9BD
:10545000C6BD9646571597E135E8D591E8A4F82CD6
:10546000670F110787FD936D49B5387CD3094CDD73
:10547000866A73C24C6AB17C092A25586EBD4920E0
:10548000A26BD0177E48B52C6B1950391C38D2242A
:10549000308A9785819C65D7F6A4D691287F6F7A4C
:1054A00049EF9A6A8DFD097D0BB93D5BBE60EEF058
:1054B000D4BF9E512CB5214C1D9445C5DFAA116067
:1054C0003CF895CF6D92675F7190287161857E7C05
:1054D0005B7A8F99F3E7A1D6E0F9620B1BCCC56F1D
:1054E00090F8CB02C8D0DE63AA6AFF0DCA98D0FB41
:1054F00099EDB6B9FD0A4D621E0B3479B718CE6925
:10550000CB7998B22855EFD192907ED43CAE1ADD7B
:1055100052239F1842047E12F10171E53A6B59152E
:10552000A279913FD2392746CFDDD697311283FF3A
:105530008A14F253B5DE0713DA4D5F7B6837220D0C
:10554000CA24517E1631FF09DF45C7D98B15E40BFC
:10555000E556F57E227D2B2938D1B6AF41E2A43A3B
:10556000F505332ABF38C12CC326E9A28F3F58481E
:10557000EBD24955A2B13A086CA387466EAAFC3219
:10558000F59A7DC58D6EC57BF2BDF09DEDD20B3ECB
:10559000A3E4EF22DE14C0AA5C6ABDFECEE9274672
:1055A000DFCC872773A40732F8E313F20819E31757
:1055B0004E960DF6D7ECB2D5E90B60C236636F7428
:1055C0001C976CAB45F34A3F1F73439972EB88E21B
:1055D0006D1844038A6A59339362D67E0017497B5B
:1055E00064B084AB5CFB852D14BCF389D210784980
:1055F0000CCE157B44DC6A477BFD44F876A32B1266
:10560000DDA253DD281B34543FFC42DF5B9017AA18
:10561000F4F8D24DD992F50F7DD38CE00F62031DC3
:1056200054E5B4A2CD3202C27F185D1142FDD09E76
:10563000D979D47DBEB4AB2E4CEC682BF50BC702E8
:10564000BB2F0B5D4BEC87A2CA82480790575C4189
:105650005C81D0C11EA644E0E0F59E400A4F33268F
:10566000E1728D45BF32E5ACB53CB77CE068E75BE5
:10567000E7BD8BEE947DCF56033AB4FEE397066BFD
:10568000C0A362DF4AF0C8B65DA46D07EF00F03E2C
:10569000A9D2F04958B99C9CAE2F1B44437FC31C30
:1056A0004F32C75C5A568F5022A906E5C0C461D05C
:1056B00019AC455CDBAB18FB4A318003C109686C4F
:1056C000B9AECEC9F15666D76A65E518F8155B1C08
:1056D00034234C843228E7263868192F776F343A00
:1056E000C86ADAE21251D5D2ED51E8B13103BDE911
:1056F0006272C68EDD460796D0C5F76E9F1B910578
:10570000BB0EDFF5839933C1AC4C2C518F75F3C0C0
:10571000E198B30B0A13F12C620C27AAF9EC3C6B4D
:10572000EFEA2E51F3AC495349CBC11CD341C12000
:105730008D689AA9070C1824172D4BC6D1F95E5510
:1057400008BD733BBA70A7360CBFAFA308EF4A621F
:10575000F24609B498FF37579D748133E14D5F6776
:10576000FC82176B03522C0EB483AD6C816C816488
:105770003E076469D9BDDCD020C56401F79DD9130B
:105780001DB3DA3BD9F62FA1FE2D659D0FD8250755
:105790008794BE9AF34F9C01433CCD82B850F4608D
:1057A000CAC0E521C35E4B01A2BF19D7C969CB4F5F
:1057B000A0230075181C5F4E80ACED559EDE061CC4
:1057C000E2C43EA3D67A0F998EE02EBE38F9086661
:1057D00015452863C543A19C0DB62DEC1F8AF34CDB
:1057E000AA696DFF402BD5FFBB4940DC180B533431
:1057F00097984DA32F5C4A5E2DBA327D8E6F097843
:10580000E75CFA0D65AAAAA08C47B5482A9EC4F9A0
:105810005B7203707DCC094FBE1A09263AAD3C3746
:105820007CF5C9824D6394B236459324E1FDCB1FCC
:105830005ADB8C41B34D9C9EFC194445D9F3400082
:10584000ADBBDD89FBA8BEF1CBAEAE61BC2CCB3BC2
:105850009D8D9B1FBBA7588F86A61251DA7E5421BF
:10586000D38659FD39E9FDDE0C380A51892C27F41D
:10587000B91931BB07A42BB7F44D254A330A556338
:1058800037CF69B5EDD60765E12EA50CB029841791
:105890005DD66BEB90007CEA518FF7DAC762EA3E87
:1058A000497B54724558BA9BE008C4E2FAC605F336
:1058B0008DF134C769FAE8607A767DAAAF2BA939F1
:1058C0004E2793E613C7249D75D3DB687785635F06
:1058D0009AB38AEB60555270CDC4C965066A4368B5
:1058E000273F2F20E83502BCB075F964E2005CC7A1
:1058F00016248CA3D5E9A491F989B78AF6E7B617DF
:105900007C1020E817D3561E65E90A84446826C532
:105910007AFC0F32C6A1E0C1721461919C66735388
:1059200057520E9AAB14285DFCB3CAC984208F90DD
:10593000CA1E2D5B88F5CAAF117DF878A6B5B41CD8
:105940006CFC4A396BC064B6B15FDA9824DE880C0F
:1059500034D8CA4B16038D4FA23474DE78CA0B3389
:10596000E707A0A262AA746BB1C771F0B0E011F3AF
:1059700023E20B0038E40757AC6EEF822DFDC02DFB
:105980004E74191184FF2E982447072B965E69F9EF
:10599000FB53C9BF4FC18AC5F51C9F361BBE313CA6
:1059A000EE8A94084D86F4B06F1CBA91EE19DC07AC
:1059B00058A1ACA6AECD7579BBD4624213610B334E
:1059C0007242CBF993BC68C198DBCEC71F71B8AEE9
:1059D0007A8DAC34AA520E7FBB557D7E09C1CE4173
:1059E0008A806DA2D71996F76D159E1D9ED41FBB98
:1059F00027DFA1DB6CC3D7737D77281FD94CB42672
:105A00007574388F4748F0513CCBBE9CF4BC5DB2F6
:105A100055209FD94412AB9AD6A5101C6C9E702CB1
:105A20008303736293F2B7E12C8ACAEBFF79524B7E
:105A30001413D4BF8A77FCDA0F61729C1410EB7DCB
:105A40007AEE66876AAF62CB0ECD535504ECCB6617
:105A5000B5E40B0F38018058EAE22CF69F8EE60879
:105A6000AD30C14B0A50AD349CD40B3D49DB388D71
:105A7000BE890A50983D5CA2093BBAEE873F1F2FB2
:105A8000F9F2B80AD5092D2FDF2359C58D21B9ACFC
:105A9000B96C767326348F4AF519F738D73BB14C79
:105AA0004AB615E5758C84F738904ADBBA0195A59E
:105AB000501B753F3F310DC2E82EAEC053E3A11914
:105AC000C305FABA60751C7D615EE5C6A0A0E1B3AE
:105AD0007364D6C0189752E386340CC2116B5441DC
:105AE000BDBD96D5CD7221B440FCEE984345E09300
:105AF000B50941B44753B19F34AE660299D36B7375
:105B0000B4B33493502D5385736581604B11FD46BA
:105B100075835C42305F5FCC5CAB7FB8A29522415D
:105B2000E9D67EF5889BC91925C8F86D26CB935315
:105B300073D20AB31332EE5C342E2DB5EB53E1145D
:105B4000C6EA93E26152652EDBAC332103925A849C
:105B50006B990079CB75094680DD5A198DBB6007BA
:105B60008A81E6CD171A3E4184A069EDA96D1557CB
:105B7000B1CCCA468F26BF2CF2C53AC39BBE346B4C
:105B8000B2C0783A642FDFF37C022EF21E973E4CAF
:105B9000A3B5C1495E1C7DEC2DDD22098FC1122009
:105BA000D3F271656569FC117A730E5345E8C9C675
:105BB0003550FED4A2E73AE30BD36D2EB6C7B90138
:105BC000299DC85AE5550B8863A7A0451F24831457
:105BD0001F6CE7C2DFEF363DE8AD4B4E785BAF0898
:105BE00033251F88DC993428B6239377DA25059D61
:105BF000F4413467FBDD7A898D163A16719DB73210
:105C00004B2CCC89D21473E28D1787A211BDE44BC3
:105C1000CE6433FAD628D5186E82D9AFD5C12364A5
:105C20006AB3FCEDD9F885CCF9E546378FC2BC22C2
:105C3000CDD3E5F938E39DE4CC2D3EC1FB5E0A48A7
:105C4000712062010BE7510BC5AF1D8BCF05B50667
:105C5000CDAB5AEF61B06B2C31BFB70C6027AA47B0
:105C60001F22CE42E44C61B62839054CCC9D196EFA
:105C700003BE1CDCA4B43F66068E1C69471DB3241A
:105C8000C3F815C0ED1E542A7C3F697C7EFEA4112A
:105C9000D678A24E1366AFF094A0DD145D585B5425
:105CA0000F3AD4A05E27BF67BEEE9B08348EE6ADE8
:105CB0002EE779D44C1389425454BA32C3F9620F97
:105CC000E121B3E3D0E40462951EFF287A63AA3B86
:105CD0009EBD995BFDCF0C0B71D0C8643EDC224D9C
:105CE000395F3BD68965B4FC61CFCB573F6AAE5C68
:105CF00005FA3A95D2C2BAFE361437361AA00F1CEE
:105D0000FF3D9422B604C6D2A0B3CF44CEBE8CBC15
:105D100078868097F34F255DBFA61C3B4F61A30F8C
:105D2000506A938C0E2B0869B6C5DAC135A0C9F943
:105D300034B6DFC4543EB76F40C12B1D9B410540B4
:105D4000F082BEB9BDFE03A090AC443AAFC1892039
:105D50008EFA5419919F49F842AB40EF8A21BA1F3D
:105D60003EF5C8FA489454AB4137A67B9AE8F681D1
:105D7000015E2B6C7D6CFD74426EC8A8CA3A2E3948
:105D800094017B3E04573E4F7FAFDA08EE3E1DA8DC
:105D9000F1DEDC99ABC639C8D56177FF135D536C72
:105DA000AF358A3EE934BD4C16E887584481072E4A
:105DB000ABB09AF2769C31193BC10AD5E47FE1255C
:105DC00076F6041ED79B280A950F42D6521C8E20C9
:105DD000AB1F6934B0D8865151B39F2A445157251F
:105DE000A721F176F57F5F91E387CD2F27324AC354
:105DF00026E51B4DDE2FBACC9B8969898F82BA6B51
:105E00000139FE9066BCD1E2D57A99A0184AB54C0A
:105E1000D46084AF14691D97E47B6B7F4F509D5510
:105E2000D554EBB3788373A77C3C55A566D3691D25
:105E3000BA0028F962CF260A17327E80D512AB014C
:105E4000FD66D2F6E791489C1B7807039BA14407A7
:105E50003BE261601D8F38880ED54B35A3A63E12FC
:105E6000962DE34190188D11485831D8C2E3EDB911
:105E7000D94532D87142AB1E54A118C9E261394AE2
:105E8000A0BBE6F8E03BDC710AE3FF7E34F8CED637
:105E90006A473AE15F4292A963B71DFBE3BCD62C87
:105EA0001E3F23F344D6270316F0FC340E269A49EE
:105EB00079B9DAF216A7B5831F11D49BADEEAC68A1
:105EC00010C2D7F30EC9B4380C04ADB7246E8E30AF
:105ED000233EE7B7F1D9603897F508B5D560575933
:105EE0009763AA04E1BF2961CBFCA7A40800968FA1
:105EF0005894907D89C08B3FA991B2DC3EA49F70DD
:105F0000902702FDEBCB2A88605711C40533AF8977
:105F1000F473347DE392F4652B5A5154DFC5B22CEF
:105F2000CA2AFD638C5D0AEBFF4E692E66C12BD237
:105F30003AB0CBF86EF323271F13C8F0EC29F070AA
:105F4000333EED2EB3071346E78155A4332F04AE3D
:105F500066035F19D34944C95848316C8A5D7D0B8B
:105F6000B9B0105EAAAF6A2AA91A04EF70A3F0783C
:105F70001FD63AAA77FB3E77E1D94BA7A2A5EC44FE
:105F800043D5957B3248D4251D0F34A30083D370AD
:105F90002BC5E1601C531CDEE4E97D2C5124222733
:105FA0002E34C549AF92BC1AD0FAE6B211D8EEFF32
:105FB000294EC8FC8D8CA2EF43C54CA418DFB51147
:105FC000FC75A9428ABB7BBF58A3AD9677395C8C20
:105FD00048AAEDCD6FC77FE2A620BCF6D75F731944
:105FE0006642C842D090ABE37E54197F0F8E84EB9B
:105FF000B997A465D0A103255F89DF911191EF0FB7
:00000001FF
